0.0
0.0
0.0
0.0
0.0
0.0
0.0
0.0
0.0
0.0
0.0
0.0
0.0
0.0
0.0
0.0
0.0
0.0
0.0
0.0
0.0
0.0
0.0
0.0
0.0
0.0
0.0
0.0
0.0
0.0
0.0
0.0
0.0
0.0
0.0
0.0
0.0
0.0
0.0
0.0
0.0
0.0
0.0
0.0
0.0
0.0
0.0
0.0
0.0
4.41184872565e-08
0.0
0.0
0.0
8.8236974513e-08
2.20592436282e-07
4.41184872565e-07
4.85303359821e-07
7.94132770617e-07
5.29421847078e-07
2.64710923539e-07
7.5001428336e-07
1.41179159221e-06
1.27943613044e-06
1.58826554123e-06
1.67650251575e-06
2.0294504138e-06
1.94121343929e-06
1.58826554123e-06
1.19119915593e-06
9.26488232386e-07
3.97066385308e-07
2.64710923539e-07
1.32355461769e-07
0.0
4.41184872565e-08
0.0
0.0
0.0
0.0
0.0
0.0
