0.0
0.0
0.0
0.0
0.0
0.0
0.0
0.0
0.0
0.0
0.0
0.0
0.0
0.0
0.0
0.0
4.42263564185e-08
0.0
1.32679069255e-07
2.21131782092e-07
3.98037207766e-07
3.98037207766e-07
7.07621702696e-07
5.30716277022e-07
1.50369611823e-06
1.37101704897e-06
1.32679069255e-06
1.94595968241e-06
1.50369611823e-06
1.23833797972e-06
1.72482790032e-06
8.8452712837e-07
9.72979841207e-07
7.07621702696e-07
3.98037207766e-07
5.30716277022e-07
3.09584494929e-07
2.21131782092e-07
8.8452712837e-08
4.42263564185e-08
4.42263564185e-08
4.42263564185e-08
0.0
4.42263564185e-08
0.0
8.8452712837e-08
0.0
8.8452712837e-08
1.32679069255e-07
4.42263564185e-08
0.0
8.8452712837e-08
8.8452712837e-08
4.42263564185e-08
8.8452712837e-08
8.8452712837e-08
0.0
0.0
0.0
0.0
0.0
0.0
0.0
0.0
0.0
0.0
0.0
0.0
0.0
0.0
0.0
0.0
0.0
0.0
0.0
0.0
0.0
0.0
0.0
0.0
0.0
