0.0
0.0
0.0
0.0
0.0
0.0
0.0
0.0
0.0
0.0
0.0
0.0
0.0
0.0
0.0
0.0
0.0
0.0
0.0
0.0
0.0
0.0
0.0
0.0
0.0
0.0
0.0
0.0
0.0
3.30083572539e-08
3.30083572539e-08
3.30083572539e-08
0.0
3.30083572539e-08
0.0
3.30083572539e-08
3.30083572539e-08
0.0
3.30083572539e-08
0.0
3.30083572539e-08
0.0
0.0
3.30083572539e-08
1.32033429016e-07
1.32033429016e-07
9.90250717618e-08
3.63091929793e-07
6.93175502333e-07
3.30083572539e-07
9.2423400311e-07
1.15529250389e-06
1.15529250389e-06
1.55139279094e-06
1.98050143524e-06
1.48537607643e-06
1.55139279094e-06
1.2213092184e-06
1.05626743213e-06
8.58217288602e-07
7.92200574095e-07
7.92200574095e-07
4.95125358809e-07
5.61142073317e-07
2.31058500778e-07
3.30083572539e-08
6.60167145079e-08
9.90250717618e-08
0.0
0.0
3.30083572539e-08
0.0
0.0
0.0
0.0
0.0
0.0
0.0
0.0
0.0
0.0
