0.0
0.0
0.0
0.0
0.0
0.0
0.0
0.0
0.0
0.0
0.0
0.0
0.0
0.0
0.0
0.0
4.42263564185e-08
0.0
0.0
8.8452712837e-08
0.0
3.09584494929e-07
3.53810851348e-07
3.98037207766e-07
8.8452712837e-07
8.8452712837e-07
1.45946976181e-06
1.37101704897e-06
1.76905425674e-06
1.50369611823e-06
1.6806015439e-06
1.81328061316e-06
1.32679069255e-06
1.10565891046e-06
7.07621702696e-07
7.07621702696e-07
5.7494263344e-07
2.21131782092e-07
0.0
1.32679069255e-07
0.0
4.42263564185e-08
4.42263564185e-08
0.0
0.0
0.0
0.0
0.0
4.42263564185e-08
1.32679069255e-07
4.42263564185e-08
1.76905425674e-07
4.42263564185e-08
2.21131782092e-07
0.0
0.0
0.0
0.0
0.0
0.0
0.0
0.0
0.0
0.0
0.0
0.0
0.0
0.0
0.0
0.0
0.0
0.0
0.0
0.0
0.0
0.0
0.0
0.0
0.0
0.0
0.0
