0.0
0.0
0.0
0.0
0.0
0.0
0.0
0.0
0.0
0.0
0.0
0.0
0.0
0.0
0.0
0.0
0.0
0.0
0.0
0.0
0.0
0.0
0.0
0.0
0.0
0.0
0.0
0.0
0.0
0.0
0.0
0.0
0.0
0.0
0.0
0.0
0.0
0.0
0.0
3.10800339779e-08
0.0
3.10800339779e-08
3.10800339779e-08
3.10800339779e-08
0.0
1.86480203868e-07
0.0
2.48640271823e-07
1.24320135912e-07
3.10800339779e-07
3.72960407735e-07
8.08080883426e-07
1.18104129116e-06
1.42968156299e-06
1.64724180083e-06
1.64724180083e-06
2.14452234448e-06
1.70940186879e-06
1.64724180083e-06
1.14996125718e-06
1.11888122321e-06
1.08780118923e-06
4.66200509669e-07
3.72960407735e-07
1.24320135912e-07
1.24320135912e-07
3.10800339779e-08
3.10800339779e-08
0.0
0.0
0.0
0.0
0.0
0.0
0.0
0.0
0.0
0.0
0.0
0.0
0.0
