0.0
0.0
0.0
0.0
0.0
0.0
0.0
0.0
0.0
0.0
0.0
0.0
0.0
0.0
0.0
0.0
0.0
0.0
0.0
0.0
0.0
0.0
0.0
5.87291551142e-08
0.0
0.0
0.0
0.0
1.17458310228e-07
0.0
2.34916620457e-07
2.93645775571e-07
2.93645775571e-07
5.28562396027e-07
2.34916620457e-07
3.52374930685e-07
5.87291551142e-07
2.93645775571e-07
6.46020706256e-07
1.76187465342e-07
3.52374930685e-07
6.46020706256e-07
5.87291551142e-07
9.39666481826e-07
3.52374930685e-07
1.05712479205e-06
9.98395636941e-07
1.17458310228e-06
1.40949972274e-06
1.52695803297e-06
1.6444163432e-06
1.2333122574e-06
9.98395636941e-07
6.46020706256e-07
2.34916620457e-07
2.93645775571e-07
1.76187465342e-07
0.0
0.0
0.0
0.0
0.0
0.0
0.0
0.0
0.0
0.0
0.0
0.0
0.0
0.0
0.0
0.0
0.0
0.0
0.0
0.0
0.0
0.0
0.0
0.0
