0.0
0.0
0.0
0.0
0.0
0.0
0.0
0.0
0.0
0.0
0.0
0.0
0.0
0.0
0.0
0.0
0.0
0.0
0.0
0.0
0.0
0.0
4.29657476845e-08
4.29657476845e-08
0.0
4.29657476845e-08
4.29657476845e-08
8.59314953689e-08
4.29657476845e-08
8.59314953689e-08
0.0
1.28897243053e-07
3.8669172916e-07
4.29657476845e-08
1.71862990738e-07
8.59314953689e-08
1.71862990738e-07
8.59314953689e-08
1.71862990738e-07
0.0
2.14828738422e-07
4.29657476845e-08
2.57794486107e-07
2.57794486107e-07
3.00760233791e-07
9.88212196743e-07
5.58554719898e-07
7.30417710636e-07
1.03117794443e-06
9.88212196743e-07
1.3749039259e-06
1.67566415969e-06
1.84752715043e-06
1.41786967359e-06
1.67566415969e-06
1.50380116896e-06
5.15588972214e-07
2.14828738422e-07
2.57794486107e-07
2.14828738422e-07
8.59314953689e-08
1.71862990738e-07
4.29657476845e-08
0.0
4.29657476845e-08
0.0
0.0
4.29657476845e-08
0.0
0.0
0.0
0.0
0.0
0.0
0.0
0.0
0.0
0.0
0.0
0.0
0.0
