0.0
0.0
0.0
0.0
0.0
0.0
0.0
0.0
0.0
0.0
0.0
0.0
0.0
0.0
0.0
0.0
0.0
0.0
3.69909606854e-08
3.69909606854e-08
0.0
2.95927685483e-07
6.65837292337e-07
1.18371074193e-06
3.47715030443e-06
3.58812318648e-06
3.47715030443e-06
2.29343956249e-06
1.36866554536e-06
8.8778305645e-07
4.43891528225e-07
2.21945764112e-07
3.69909606854e-08
7.39819213708e-08
0.0
0.0
0.0
0.0
0.0
0.0
0.0
0.0
0.0
0.0
0.0
0.0
0.0
0.0
0.0
0.0
0.0
0.0
0.0
0.0
0.0
0.0
0.0
0.0
0.0
0.0
0.0
0.0
0.0
0.0
0.0
0.0
0.0
0.0
0.0
0.0
0.0
0.0
0.0
0.0
0.0
0.0
0.0
0.0
0.0
0.0
0.0
