0.0
0.0
0.0
0.0
0.0
0.0
0.0
0.0
0.0
0.0
0.0
0.0
0.0
0.0
0.0
0.0
0.0
0.0
0.0
0.0
0.0
0.0
0.0
4.42263564185e-08
8.8452712837e-08
8.8452712837e-08
2.21131782092e-07
3.98037207766e-07
3.98037207766e-07
9.72979841207e-07
1.81328061316e-06
2.25554417734e-06
2.8747131672e-06
2.47667595943e-06
2.56512867227e-06
1.37101704897e-06
9.28753484788e-07
3.09584494929e-07
3.98037207766e-07
2.21131782092e-07
8.8452712837e-08
0.0
0.0
4.42263564185e-08
1.32679069255e-07
4.42263564185e-08
4.42263564185e-08
4.42263564185e-08
1.32679069255e-07
4.42263564185e-08
8.8452712837e-08
0.0
0.0
0.0
0.0
0.0
0.0
0.0
0.0
0.0
0.0
0.0
0.0
0.0
0.0
0.0
0.0
0.0
0.0
0.0
0.0
0.0
0.0
0.0
0.0
0.0
0.0
0.0
0.0
0.0
0.0
