0.0
0.0
0.0
0.0
0.0
0.0
0.0
0.0
0.0
0.0
0.0
0.0
0.0
0.0
0.0
3.71428742816e-08
0.0
0.0
0.0
3.71428742816e-08
3.71428742816e-08
1.48571497127e-07
3.71428742816e-07
6.6857173707e-07
9.65714731323e-07
1.30000059986e-06
1.44857209698e-06
1.89428658836e-06
1.96857233693e-06
1.89428658836e-06
1.63428646839e-06
1.59714359411e-06
1.37428634842e-06
6.6857173707e-07
8.17143234196e-07
5.20000239943e-07
1.85714371408e-07
1.85714371408e-07
3.71428742816e-08
7.42857485633e-08
3.71428742816e-08
0.0
3.71428742816e-08
0.0
0.0
3.71428742816e-08
0.0
3.71428742816e-08
0.0
0.0
3.71428742816e-08
0.0
3.71428742816e-08
0.0
0.0
0.0
0.0
0.0
0.0
0.0
0.0
0.0
0.0
0.0
0.0
0.0
0.0
0.0
0.0
0.0
0.0
0.0
0.0
0.0
0.0
0.0
0.0
0.0
0.0
0.0
0.0
