0.0
0.0
0.0
0.0
0.0
0.0
0.0
0.0
0.0
0.0
0.0
0.0
0.0
0.0
0.0
0.0
0.0
0.0
0.0
0.0
0.0
0.0
0.0
0.0
0.0
0.0
0.0
0.0
0.0
0.0
0.0
0.0
5.63507158105e-08
2.81753579052e-07
2.25402863242e-07
5.63507158105e-07
8.45260737157e-07
9.57962168778e-07
1.35241717945e-06
1.74687219012e-06
1.57782004269e-06
1.91592433756e-06
2.87388650633e-06
2.02862576918e-06
1.85957362175e-06
7.88910021346e-07
1.69052147431e-07
2.25402863242e-07
2.25402863242e-07
0.0
1.69052147431e-07
1.69052147431e-07
5.63507158105e-08
0.0
0.0
0.0
0.0
0.0
0.0
0.0
0.0
0.0
0.0
0.0
0.0
0.0
0.0
0.0
0.0
0.0
0.0
0.0
0.0
0.0
0.0
0.0
0.0
0.0
0.0
0.0
0.0
