0.0
0.0
0.0
0.0
0.0
0.0
0.0
0.0
0.0
0.0
0.0
0.0
0.0
0.0
0.0
3.69909606854e-08
0.0
3.69909606854e-08
3.69909606854e-08
2.95927685483e-07
4.43891528225e-07
1.07273785988e-06
1.88653899496e-06
2.40441244455e-06
2.7743220514e-06
2.66334916935e-06
2.10848475907e-06
1.47963842742e-06
1.14671978125e-06
8.50792095764e-07
2.95927685483e-07
2.58936724798e-07
1.84954803427e-07
7.39819213708e-08
3.69909606854e-08
0.0
0.0
0.0
0.0
0.0
0.0
0.0
0.0
0.0
0.0
0.0
0.0
0.0
0.0
0.0
0.0
0.0
0.0
0.0
0.0
0.0
0.0
0.0
0.0
0.0
0.0
0.0
0.0
0.0
0.0
0.0
0.0
0.0
0.0
0.0
0.0
0.0
0.0
0.0
0.0
0.0
0.0
0.0
0.0
0.0
0.0
