0.0
0.0
0.0
0.0
0.0
0.0
0.0
0.0
0.0
0.0
0.0
0.0
0.0
0.0
0.0
0.0
0.0
0.0
0.0
0.0
0.0
0.0
5.87291551142e-08
0.0
5.87291551142e-08
5.87291551142e-08
1.17458310228e-07
1.17458310228e-07
1.76187465342e-07
2.93645775571e-07
3.52374930685e-07
1.76187465342e-07
5.87291551142e-07
1.76187465342e-07
4.11104085799e-07
3.52374930685e-07
2.34916620457e-07
5.87291551142e-07
2.34916620457e-07
1.76187465342e-07
2.34916620457e-07
2.93645775571e-07
5.28562396027e-07
3.52374930685e-07
5.28562396027e-07
9.98395636941e-07
9.98395636941e-07
6.46020706256e-07
8.80937326712e-07
1.17458310228e-06
1.2333122574e-06
1.76187465342e-06
2.055520429e-06
9.39666481826e-07
7.0474986137e-07
2.34916620457e-07
1.76187465342e-07
5.87291551142e-08
5.87291551142e-08
5.87291551142e-08
0.0
0.0
0.0
0.0
0.0
0.0
0.0
0.0
0.0
0.0
0.0
0.0
0.0
0.0
0.0
0.0
0.0
0.0
0.0
0.0
0.0
