0.0
0.0
0.0
0.0
0.0
0.0
0.0
0.0
0.0
0.0
0.0
0.0
0.0
0.0
0.0
0.0
0.0
0.0
0.0
0.0
0.0
0.0
0.0
0.0
4.42263564185e-08
4.42263564185e-08
8.8452712837e-08
1.76905425674e-07
3.09584494929e-07
5.30716277022e-07
1.14988526688e-06
1.50369611823e-06
3.18429766213e-06
2.83048681078e-06
2.69780774153e-06
2.03441239525e-06
1.63637518748e-06
7.07621702696e-07
3.09584494929e-07
2.65358138511e-07
4.42263564185e-08
8.8452712837e-08
1.32679069255e-07
4.42263564185e-08
4.42263564185e-08
8.8452712837e-08
0.0
0.0
0.0
4.42263564185e-08
4.42263564185e-08
0.0
4.42263564185e-08
0.0
0.0
0.0
0.0
0.0
0.0
0.0
0.0
0.0
0.0
0.0
0.0
0.0
0.0
0.0
0.0
0.0
0.0
0.0
0.0
0.0
0.0
0.0
0.0
0.0
0.0
0.0
0.0
