0.0
0.0
0.0
0.0
0.0
0.0
0.0
0.0
0.0
0.0
0.0
0.0
0.0
0.0
0.0
0.0
0.0
0.0
0.0
0.0
0.0
0.0
0.0
0.0
0.0
0.0
0.0
0.0
0.0
0.0
0.0
4.29657476845e-08
4.29657476845e-08
4.29657476845e-08
4.29657476845e-08
1.28897243053e-07
1.71862990738e-07
8.59314953689e-08
0.0
1.28897243053e-07
2.57794486107e-07
3.8669172916e-07
6.01520467582e-07
1.07414369211e-06
8.59314953689e-07
1.58973266433e-06
2.06235588885e-06
2.27718462728e-06
2.10532163654e-06
1.80456140275e-06
1.80456140275e-06
1.03117794443e-06
7.30417710636e-07
4.72623224529e-07
3.00760233791e-07
4.29657476845e-08
0.0
0.0
0.0
0.0
0.0
0.0
0.0
0.0
0.0
0.0
0.0
0.0
0.0
0.0
0.0
0.0
0.0
0.0
0.0
0.0
0.0
0.0
0.0
0.0
0.0
