0.0
0.0
0.0
0.0
0.0
0.0
0.0
0.0
0.0
0.0
0.0
0.0
0.0
0.0
0.0
0.0
0.0
0.0
0.0
0.0
0.0
0.0
4.83651865646e-08
4.83651865646e-08
1.45095559694e-07
0.0
2.90191119388e-07
1.93460746258e-07
6.2874742534e-07
8.22208171598e-07
1.20912966411e-06
1.6444163432e-06
2.17643339541e-06
2.17643339541e-06
1.69278152976e-06
1.54768597007e-06
8.70573358163e-07
1.11239929099e-06
5.32017052211e-07
3.86921492517e-07
9.67303731292e-08
1.45095559694e-07
1.45095559694e-07
1.93460746258e-07
1.93460746258e-07
1.93460746258e-07
1.93460746258e-07
9.67303731292e-08
1.93460746258e-07
3.86921492517e-07
2.90191119388e-07
9.67303731292e-08
1.45095559694e-07
4.83651865646e-08
1.45095559694e-07
0.0
0.0
0.0
0.0
0.0
0.0
0.0
0.0
0.0
0.0
0.0
0.0
0.0
0.0
0.0
0.0
0.0
0.0
0.0
0.0
0.0
0.0
0.0
0.0
0.0
0.0
