0.0
0.0
0.0
0.0
0.0
0.0
0.0
0.0
0.0
0.0
0.0
0.0
0.0
0.0
0.0
0.0
0.0
0.0
0.0
0.0
0.0
0.0
3.43889349338e-08
0.0
0.0
3.43889349338e-08
0.0
6.87778698675e-08
3.43889349338e-08
3.43889349338e-08
6.87778698675e-08
0.0
1.03166804801e-07
6.87778698675e-08
6.87778698675e-08
6.87778698675e-08
6.87778698675e-08
1.03166804801e-07
3.43889349338e-08
3.43889349338e-08
6.87778698675e-08
0.0
6.87778698675e-08
2.06333609603e-07
3.43889349338e-07
4.81445089073e-07
4.47056154139e-07
8.94112308278e-07
9.28501243212e-07
1.13483485281e-06
1.23800165762e-06
1.58189100695e-06
1.89139142136e-06
2.09772503096e-06
1.30677952748e-06
1.44433526722e-06
1.06605698295e-06
6.53389763741e-07
3.78278284271e-07
3.43889349338e-07
2.7511147947e-07
1.03166804801e-07
1.03166804801e-07
3.43889349338e-08
1.03166804801e-07
0.0
0.0
3.43889349338e-08
0.0
3.43889349338e-08
0.0
0.0
0.0
0.0
0.0
0.0
0.0
0.0
0.0
0.0
0.0
