0.0
0.0
0.0
0.0
0.0
0.0
0.0
0.0
0.0
0.0
0.0
0.0
0.0
0.0
0.0
0.0
4.83651865646e-08
0.0
0.0
0.0
0.0
4.83651865646e-08
4.83651865646e-08
1.93460746258e-07
2.90191119388e-07
1.45095559694e-07
6.77112611904e-07
7.73842985034e-07
1.11239929099e-06
1.16076447755e-06
1.74114671633e-06
1.83787708945e-06
1.83787708945e-06
1.54768597007e-06
1.01566891786e-06
1.20912966411e-06
7.73842985034e-07
3.86921492517e-07
2.90191119388e-07
1.45095559694e-07
1.45095559694e-07
4.83651865646e-08
1.93460746258e-07
9.67303731292e-08
1.93460746258e-07
9.67303731292e-08
2.41825932823e-07
0.0
2.90191119388e-07
1.45095559694e-07
2.90191119388e-07
2.41825932823e-07
3.86921492517e-07
1.93460746258e-07
4.83651865646e-08
9.67303731292e-08
9.67303731292e-08
0.0
0.0
0.0
0.0
0.0
0.0
0.0
0.0
0.0
0.0
0.0
0.0
0.0
0.0
0.0
0.0
0.0
0.0
0.0
0.0
0.0
0.0
0.0
0.0
