0.0
0.0
0.0
0.0
0.0
0.0
0.0
0.0
0.0
0.0
0.0
0.0
0.0
0.0
0.0
0.0
0.0
0.0
0.0
0.0
0.0
0.0
0.0
0.0
0.0
3.30083572539e-08
0.0
3.30083572539e-08
0.0
3.30083572539e-08
0.0
0.0
0.0
3.30083572539e-08
0.0
6.60167145079e-08
0.0
0.0
0.0
0.0
6.60167145079e-08
3.30083572539e-08
0.0
6.60167145079e-08
6.60167145079e-08
9.90250717618e-08
1.98050143524e-07
2.97075215285e-07
4.95125358809e-07
3.96100287047e-07
8.58217288602e-07
8.58217288602e-07
1.25431757565e-06
1.78245129171e-06
1.51838443368e-06
1.6504178627e-06
1.41935936192e-06
8.25208931348e-07
9.57242360364e-07
9.57242360364e-07
7.92200574095e-07
7.92200574095e-07
6.60167145079e-07
5.28133716063e-07
4.95125358809e-07
4.29108644301e-07
2.64066858032e-07
3.30083572539e-08
6.60167145079e-08
0.0
0.0
3.30083572539e-08
0.0
0.0
0.0
0.0
0.0
0.0
0.0
0.0
0.0
