0.0
0.0
0.0
0.0
0.0
0.0
0.0
0.0
0.0
0.0
0.0
0.0
0.0
0.0
0.0
0.0
0.0
0.0
0.0
5.87291551142e-08
5.87291551142e-08
1.17458310228e-07
0.0
2.34916620457e-07
3.52374930685e-07
3.52374930685e-07
2.34916620457e-07
2.34916620457e-07
4.11104085799e-07
1.76187465342e-07
2.93645775571e-07
3.52374930685e-07
2.34916620457e-07
2.34916620457e-07
1.76187465342e-07
1.17458310228e-07
2.34916620457e-07
5.87291551142e-08
0.0
1.17458310228e-07
5.87291551142e-08
1.76187465342e-07
1.17458310228e-07
1.76187465342e-07
2.34916620457e-07
3.52374930685e-07
5.28562396027e-07
6.46020706256e-07
1.05712479205e-06
8.22208171598e-07
1.11585394717e-06
1.05712479205e-06
1.6444163432e-06
1.29204141251e-06
1.17458310228e-06
1.05712479205e-06
7.63479016484e-07
5.87291551142e-07
1.76187465342e-07
2.93645775571e-07
1.17458310228e-07
1.17458310228e-07
5.87291551142e-08
1.76187465342e-07
5.87291551142e-08
1.17458310228e-07
0.0
0.0
5.87291551142e-08
0.0
0.0
0.0
0.0
0.0
0.0
0.0
0.0
0.0
0.0
0.0
0.0
