0.0
0.0
0.0
0.0
0.0
0.0
0.0
0.0
0.0
0.0
0.0
0.0
0.0
0.0
0.0
0.0
0.0
0.0
0.0
0.0
0.0
3.43889349338e-08
0.0
0.0
0.0
6.87778698675e-08
3.43889349338e-08
0.0
6.87778698675e-08
3.43889349338e-08
3.43889349338e-08
1.03166804801e-07
0.0
3.43889349338e-08
6.87778698675e-08
2.40722544536e-07
6.87778698675e-08
3.43889349338e-08
0.0
3.43889349338e-08
3.43889349338e-08
0.0
1.03166804801e-07
3.09500414404e-07
1.71944674669e-07
4.12667219205e-07
5.84611893874e-07
8.2533443841e-07
7.90945503477e-07
1.03166804801e-06
1.27239059255e-06
1.78822461656e-06
1.27239059255e-06
1.92578035629e-06
1.82261355149e-06
1.51311313709e-06
8.94112308278e-07
7.56556568543e-07
4.12667219205e-07
3.78278284271e-07
3.09500414404e-07
1.71944674669e-07
1.03166804801e-07
1.03166804801e-07
1.37555739735e-07
3.43889349338e-08
0.0
3.43889349338e-08
0.0
0.0
3.43889349338e-08
0.0
0.0
0.0
0.0
0.0
0.0
0.0
0.0
0.0
0.0
