0.0
0.0
0.0
0.0
0.0
0.0
0.0
0.0
0.0
0.0
0.0
0.0
3.69909606854e-08
3.69909606854e-08
7.39819213708e-08
1.10972882056e-07
2.95927685483e-07
5.17873449596e-07
1.07273785988e-06
9.6176497782e-07
1.59061130947e-06
1.92352995564e-06
2.10848475907e-06
1.84954803427e-06
1.73857515221e-06
1.44264746673e-06
1.03574689919e-06
1.03574689919e-06
8.50792095764e-07
5.17873449596e-07
4.06900567539e-07
7.39819213708e-08
2.21945764112e-07
1.10972882056e-07
3.69909606854e-08
3.69909606854e-08
0.0
0.0
0.0
0.0
0.0
0.0
0.0
0.0
0.0
0.0
0.0
0.0
0.0
0.0
0.0
0.0
0.0
0.0
0.0
0.0
0.0
0.0
0.0
0.0
0.0
0.0
0.0
0.0
0.0
0.0
0.0
0.0
0.0
0.0
0.0
0.0
0.0
0.0
0.0
0.0
0.0
0.0
0.0
0.0
0.0
