0.0
0.0
0.0
0.0
0.0
0.0
0.0
0.0
0.0
0.0
0.0
0.0
0.0
0.0
0.0
0.0
0.0
0.0
0.0
0.0
0.0
0.0
0.0
0.0
0.0
0.0
0.0
0.0
0.0
0.0
0.0
0.0
0.0
0.0
0.0
0.0
0.0
0.0
0.0
0.0
0.0
0.0
0.0
0.0
0.0
3.4454437667e-08
1.03363313001e-07
3.4454437667e-08
2.06726626002e-07
3.4454437667e-07
4.13453252004e-07
1.61935857035e-06
2.44626507435e-06
5.37489227605e-06
4.78916683571e-06
2.23953844835e-06
4.47907689671e-07
3.4454437667e-08
0.0
0.0
0.0
0.0
0.0
0.0
0.0
0.0
0.0
0.0
0.0
0.0
0.0
0.0
0.0
0.0
0.0
0.0
0.0
0.0
0.0
0.0
0.0
