0.0
0.0
0.0
0.0
0.0
0.0
0.0
0.0
0.0
0.0
0.0
0.0
0.0
0.0
0.0
0.0
0.0
0.0
0.0
0.0
0.0
0.0
0.0
0.0
0.0
0.0
0.0
0.0
0.0
0.0
0.0
0.0
0.0
0.0
0.0
0.0
0.0
0.0
0.0
0.0
0.0
0.0
3.10800339779e-08
3.10800339779e-08
0.0
1.5540016989e-07
9.32401019338e-08
1.24320135912e-07
1.5540016989e-07
3.41880373757e-07
5.28360577625e-07
8.70240951382e-07
9.32401019338e-07
1.92696210663e-06
2.64180288812e-06
3.54312387348e-06
2.85936312597e-06
1.74048190276e-06
1.18104129116e-06
5.28360577625e-07
2.17560237846e-07
9.32401019338e-08
3.10800339779e-08
0.0
6.21600679559e-08
0.0
0.0
0.0
0.0
0.0
0.0
0.0
0.0
0.0
0.0
0.0
0.0
0.0
0.0
0.0
0.0
