0.0
0.0
0.0
0.0
0.0
0.0
0.0
0.0
0.0
0.0
0.0
0.0
0.0
0.0
0.0
0.0
0.0
0.0
0.0
0.0
0.0
0.0
0.0
0.0
0.0
0.0
0.0
0.0
0.0
0.0
0.0
0.0
0.0
0.0
0.0
0.0
0.0
0.0
0.0
0.0
0.0
0.0
0.0
0.0
0.0
0.0
0.0
0.0
0.0
4.41184872565e-08
0.0
0.0
0.0
8.8236974513e-08
2.20592436282e-07
4.41184872565e-07
4.41184872565e-07
7.5001428336e-07
6.61777308847e-07
4.41184872565e-07
5.29421847078e-07
1.23531764318e-06
1.45591007946e-06
1.45591007946e-06
1.67650251575e-06
2.11768738831e-06
1.98533192654e-06
1.54414705398e-06
1.14708066867e-06
1.0147252069e-06
3.97066385308e-07
2.20592436282e-07
1.76473949026e-07
0.0
4.41184872565e-08
0.0
0.0
0.0
0.0
0.0
0.0
