0.0
0.0
0.0
0.0
0.0
0.0
0.0
0.0
0.0
0.0
0.0
0.0
0.0
0.0
0.0
0.0
0.0
0.0
0.0
0.0
0.0
0.0
0.0
0.0
0.0
0.0
0.0
0.0
0.0
0.0
3.43889349338e-08
3.43889349338e-08
6.87778698675e-08
3.43889349338e-08
6.87778698675e-08
3.43889349338e-08
0.0
6.87778698675e-08
6.87778698675e-08
1.03166804801e-07
6.87778698675e-08
2.06333609603e-07
1.37555739735e-07
3.09500414404e-07
7.22167633609e-07
6.53389763741e-07
9.28501243212e-07
1.16922378775e-06
1.44433526722e-06
1.78822461656e-06
2.02894716109e-06
1.99455822616e-06
2.37283651043e-06
1.68505781175e-06
7.90945503477e-07
7.22167633609e-07
1.03166804801e-07
1.71944674669e-07
1.03166804801e-07
1.37555739735e-07
0.0
3.43889349338e-08
0.0
0.0
0.0
0.0
0.0
0.0
0.0
0.0
0.0
0.0
0.0
0.0
0.0
0.0
0.0
0.0
0.0
0.0
0.0
