0.0
0.0
0.0
0.0
0.0
0.0
0.0
0.0
0.0
0.0
0.0
0.0
0.0
0.0
0.0
0.0
0.0
0.0
0.0
0.0
4.29657476845e-08
8.59314953689e-08
0.0
0.0
0.0
0.0
8.59314953689e-08
1.28897243053e-07
8.59314953689e-08
4.29657476845e-08
1.71862990738e-07
8.59314953689e-08
1.71862990738e-07
8.59314953689e-08
1.71862990738e-07
3.43725981476e-07
4.29657476845e-08
0.0
1.28897243053e-07
4.29657476845e-08
4.29657476845e-08
4.29657476845e-08
4.29657476845e-08
2.57794486107e-07
2.57794486107e-07
4.29657476845e-07
6.87451962951e-07
8.59314953689e-07
1.16007518748e-06
9.45246449058e-07
1.24600668285e-06
1.50380116896e-06
1.03117794443e-06
1.71862990738e-06
1.50380116896e-06
1.41786967359e-06
9.45246449058e-07
6.87451962951e-07
3.43725981476e-07
3.43725981476e-07
2.14828738422e-07
1.28897243053e-07
4.29657476845e-08
2.14828738422e-07
8.59314953689e-08
1.28897243053e-07
4.29657476845e-08
0.0
0.0
0.0
4.29657476845e-08
0.0
0.0
0.0
0.0
0.0
0.0
0.0
0.0
0.0
0.0
