0.0
0.0
0.0
0.0
0.0
0.0
0.0
0.0
0.0
0.0
0.0
0.0
0.0
0.0
0.0
0.0
0.0
0.0
0.0
0.0
0.0
0.0
0.0
0.0
0.0
0.0
0.0
0.0
0.0
0.0
0.0
0.0
0.0
1.01053518297e-07
5.05267591485e-08
5.05267591485e-08
1.51580277445e-07
1.01053518297e-07
3.53687314039e-07
4.04214073188e-07
9.09481664673e-07
9.60008423821e-07
1.26316897871e-06
2.02107036594e-06
1.86949008849e-06
1.97054360679e-06
2.02107036594e-06
1.61685629275e-06
1.01053518297e-06
1.36422249701e-06
5.55794350633e-07
6.06321109782e-07
3.53687314039e-07
3.53687314039e-07
0.0
0.0
0.0
0.0
0.0
0.0
0.0
0.0
0.0
0.0
0.0
0.0
0.0
0.0
0.0
0.0
0.0
0.0
0.0
0.0
0.0
0.0
0.0
0.0
0.0
0.0
0.0
