0.0
0.0
0.0
0.0
0.0
0.0
0.0
0.0
0.0
0.0
0.0
0.0
0.0
0.0
0.0
0.0
0.0
0.0
0.0
0.0
0.0
0.0
0.0
0.0
0.0
0.0
0.0
4.29657476845e-08
0.0
0.0
0.0
8.59314953689e-08
4.29657476845e-08
1.28897243053e-07
1.71862990738e-07
1.28897243053e-07
1.28897243053e-07
4.29657476845e-08
1.28897243053e-07
4.29657476845e-08
1.28897243053e-07
2.57794486107e-07
4.29657476845e-07
6.87451962951e-07
7.7338345832e-07
1.33193817822e-06
1.33193817822e-06
1.80456140275e-06
2.4920133657e-06
1.89049289812e-06
2.19125313191e-06
1.28897243053e-06
9.88212196743e-07
5.58554719898e-07
3.8669172916e-07
3.8669172916e-07
2.14828738422e-07
0.0
0.0
0.0
0.0
0.0
0.0
0.0
0.0
0.0
0.0
0.0
0.0
0.0
0.0
0.0
0.0
0.0
0.0
0.0
0.0
0.0
0.0
0.0
0.0
