0.0
0.0
0.0
0.0
0.0
0.0
0.0
0.0
0.0
0.0
0.0
0.0
0.0
0.0
0.0
0.0
0.0
0.0
0.0
0.0
0.0
0.0
3.43889349338e-08
0.0
0.0
0.0
3.43889349338e-08
0.0
6.87778698675e-08
3.43889349338e-08
6.87778698675e-08
3.43889349338e-08
3.43889349338e-08
1.37555739735e-07
1.03166804801e-07
0.0
3.43889349338e-08
3.43889349338e-08
6.87778698675e-08
6.87778698675e-08
6.87778698675e-08
6.87778698675e-08
1.37555739735e-07
2.7511147947e-07
3.43889349338e-07
4.12667219205e-07
5.5022295894e-07
7.90945503477e-07
1.06605698295e-06
9.62890178145e-07
1.23800165762e-06
2.09772503096e-06
1.65066887682e-06
1.96016929122e-06
1.65066887682e-06
1.34116846242e-06
1.03166804801e-06
5.84611893874e-07
3.09500414404e-07
2.7511147947e-07
1.71944674669e-07
1.03166804801e-07
1.37555739735e-07
0.0
0.0
3.43889349338e-08
3.43889349338e-08
0.0
0.0
3.43889349338e-08
0.0
0.0
0.0
0.0
0.0
0.0
0.0
0.0
0.0
0.0
0.0
