0.0
0.0
0.0
0.0
0.0
0.0
0.0
0.0
0.0
0.0
0.0
0.0
0.0
0.0
0.0
0.0
0.0
0.0
0.0
0.0
0.0
0.0
0.0
0.0
0.0
0.0
0.0
0.0
0.0
0.0
5.87291551142e-08
5.87291551142e-08
1.76187465342e-07
5.87291551142e-08
2.93645775571e-07
5.87291551142e-07
5.87291551142e-07
2.34916620457e-07
8.22208171598e-07
6.46020706256e-07
7.63479016484e-07
1.29204141251e-06
1.17458310228e-06
1.93806211877e-06
1.05712479205e-06
1.6444163432e-06
1.58568718808e-06
9.98395636941e-07
9.39666481826e-07
1.17458310228e-06
7.0474986137e-07
4.69833240913e-07
5.87291551142e-07
2.34916620457e-07
0.0
0.0
0.0
0.0
0.0
0.0
0.0
0.0
0.0
0.0
0.0
0.0
0.0
0.0
0.0
0.0
0.0
0.0
0.0
0.0
0.0
0.0
0.0
0.0
0.0
0.0
0.0
