0.0
0.0
0.0
0.0
0.0
0.0
0.0
0.0
0.0
0.0
0.0
0.0
0.0
0.0
0.0
0.0
4.42263564185e-08
0.0
4.42263564185e-08
1.76905425674e-07
3.98037207766e-07
3.09584494929e-07
6.19168989859e-07
7.07621702696e-07
1.45946976181e-06
1.50369611823e-06
8.40300771951e-07
2.07863875167e-06
1.72482790032e-06
1.32679069255e-06
1.37101704897e-06
9.72979841207e-07
1.14988526688e-06
8.40300771951e-07
4.42263564185e-07
7.51848059114e-07
2.21131782092e-07
8.8452712837e-08
8.8452712837e-08
0.0
8.8452712837e-08
4.42263564185e-08
4.42263564185e-08
4.42263564185e-08
0.0
4.42263564185e-08
0.0
1.32679069255e-07
0.0
4.42263564185e-08
8.8452712837e-08
8.8452712837e-08
4.42263564185e-08
1.76905425674e-07
8.8452712837e-08
0.0
0.0
0.0
0.0
0.0
0.0
0.0
0.0
0.0
0.0
0.0
0.0
0.0
0.0
0.0
0.0
0.0
0.0
0.0
0.0
0.0
0.0
0.0
0.0
0.0
0.0
