0.0
0.0
0.0
0.0
0.0
0.0
0.0
0.0
0.0
0.0
0.0
0.0
0.0
0.0
0.0
0.0
0.0
0.0
7.39819213708e-08
3.69909606854e-08
1.84954803427e-07
3.32918646169e-07
9.24774017135e-07
2.36742148387e-06
2.92228589415e-06
3.36617742237e-06
2.66334916935e-06
2.21945764112e-06
1.07273785988e-06
1.03574689919e-06
2.58936724798e-07
3.69909606854e-07
1.10972882056e-07
1.10972882056e-07
3.69909606854e-08
0.0
0.0
0.0
0.0
0.0
0.0
0.0
0.0
0.0
0.0
0.0
0.0
0.0
0.0
0.0
0.0
0.0
0.0
0.0
0.0
0.0
0.0
0.0
0.0
0.0
0.0
0.0
0.0
0.0
0.0
0.0
0.0
0.0
0.0
0.0
0.0
0.0
0.0
0.0
0.0
0.0
0.0
0.0
0.0
0.0
0.0
