0.0
0.0
0.0
0.0
0.0
0.0
0.0
0.0
0.0
0.0
0.0
0.0
0.0
0.0
0.0
0.0
0.0
0.0
7.42857485633e-08
0.0
0.0
1.48571497127e-07
1.11428622845e-07
2.2285724569e-07
4.08571617098e-07
7.42857485633e-07
1.18857197701e-06
1.89428658836e-06
1.70857221696e-06
2.2285724569e-06
2.30285820546e-06
2.00571521121e-06
1.52285784555e-06
1.22571485129e-06
1.30000059986e-06
4.08571617098e-07
2.2285724569e-07
3.71428742816e-08
1.48571497127e-07
0.0
0.0
0.0
7.42857485633e-08
3.71428742816e-08
0.0
0.0
0.0
0.0
3.71428742816e-08
0.0
0.0
3.71428742816e-08
0.0
0.0
0.0
0.0
0.0
0.0
0.0
0.0
0.0
0.0
0.0
0.0
0.0
0.0
0.0
0.0
0.0
0.0
0.0
0.0
0.0
0.0
0.0
0.0
0.0
0.0
0.0
0.0
0.0
