0.0
0.0
0.0
0.0
0.0
0.0
0.0
0.0
0.0
0.0
0.0
0.0
0.0
0.0
0.0
0.0
0.0
0.0
0.0
0.0
0.0
0.0
3.30083572539e-08
0.0
0.0
3.30083572539e-08
3.30083572539e-08
0.0
0.0
3.30083572539e-08
0.0
0.0
0.0
9.90250717618e-08
0.0
3.30083572539e-08
0.0
0.0
0.0
0.0
0.0
0.0
0.0
1.32033429016e-07
6.60167145079e-08
9.90250717618e-08
1.32033429016e-07
1.6504178627e-07
3.30083572539e-07
3.96100287047e-07
7.26183859587e-07
9.2423400311e-07
1.2873259329e-06
1.25431757565e-06
1.2873259329e-06
1.25431757565e-06
1.12228414663e-06
1.2873259329e-06
9.90250717618e-07
7.59192216841e-07
9.90250717618e-07
6.60167145079e-07
1.08927578938e-06
4.62117001555e-07
4.95125358809e-07
4.29108644301e-07
3.63091929793e-07
4.95125358809e-07
2.97075215285e-07
2.31058500778e-07
6.60167145079e-08
0.0
3.30083572539e-08
0.0
0.0
0.0
0.0
0.0
0.0
0.0
0.0
