0.0
0.0
0.0
0.0
0.0
0.0
0.0
0.0
0.0
0.0
0.0
0.0
7.39819213708e-08
3.69909606854e-08
2.58936724798e-07
1.10972882056e-07
4.8088248891e-07
8.8778305645e-07
8.8778305645e-07
1.5166293881e-06
1.55362034879e-06
1.7755661129e-06
1.73857515221e-06
1.81255707358e-06
1.44264746673e-06
1.10972882056e-06
1.36866554536e-06
9.98755938506e-07
8.50792095764e-07
2.58936724798e-07
2.95927685483e-07
3.32918646169e-07
1.47963842742e-07
1.10972882056e-07
0.0
3.69909606854e-08
0.0
0.0
0.0
0.0
0.0
0.0
0.0
0.0
0.0
0.0
0.0
0.0
0.0
0.0
0.0
0.0
0.0
0.0
0.0
0.0
0.0
0.0
0.0
0.0
0.0
0.0
0.0
0.0
0.0
0.0
0.0
0.0
0.0
0.0
0.0
0.0
0.0
0.0
0.0
0.0
0.0
0.0
0.0
0.0
0.0
