0.0
0.0
0.0
0.0
0.0
0.0
0.0
0.0
0.0
0.0
0.0
0.0
0.0
0.0
0.0
0.0
0.0
0.0
0.0
0.0
0.0
0.0
3.30083572539e-08
0.0
0.0
0.0
6.60167145079e-08
0.0
0.0
0.0
3.30083572539e-08
0.0
0.0
9.90250717618e-08
0.0
3.30083572539e-08
0.0
0.0
0.0
0.0
0.0
0.0
3.30083572539e-08
9.90250717618e-08
1.32033429016e-07
3.30083572539e-08
1.32033429016e-07
1.6504178627e-07
3.63091929793e-07
3.30083572539e-07
6.93175502333e-07
1.08927578938e-06
1.02325907487e-06
1.45236771917e-06
1.41935936192e-06
1.12228414663e-06
1.32033429016e-06
1.2873259329e-06
8.91225645856e-07
8.25208931348e-07
8.58217288602e-07
9.2423400311e-07
8.25208931348e-07
4.95125358809e-07
5.28133716063e-07
3.96100287047e-07
4.29108644301e-07
4.29108644301e-07
2.97075215285e-07
1.6504178627e-07
3.30083572539e-08
3.30083572539e-08
0.0
0.0
0.0
0.0
0.0
0.0
0.0
0.0
0.0
