0.0
0.0
0.0
0.0
0.0
0.0
0.0
0.0
0.0
0.0
0.0
0.0
0.0
0.0
0.0
0.0
0.0
0.0
0.0
0.0
0.0
0.0
0.0
0.0
0.0
0.0
0.0
0.0
0.0
0.0
4.29657476845e-08
0.0
4.29657476845e-08
4.29657476845e-08
4.29657476845e-08
1.28897243053e-07
2.14828738422e-07
4.29657476845e-08
4.29657476845e-08
2.14828738422e-07
8.59314953689e-08
3.8669172916e-07
6.01520467582e-07
1.07414369211e-06
9.02280701374e-07
1.54676691664e-06
1.97642439349e-06
2.19125313191e-06
2.27718462728e-06
1.97642439349e-06
1.76159565506e-06
9.02280701374e-07
6.44486215267e-07
6.44486215267e-07
2.57794486107e-07
4.29657476845e-08
0.0
0.0
0.0
0.0
0.0
0.0
0.0
0.0
0.0
0.0
0.0
0.0
0.0
0.0
0.0
0.0
0.0
0.0
0.0
0.0
0.0
0.0
0.0
0.0
0.0
