0.0
0.0
0.0
0.0
0.0
0.0
0.0
0.0
0.0
0.0
0.0
0.0
0.0
0.0
0.0
0.0
0.0
0.0
0.0
0.0
0.0
4.29657476845e-08
8.59314953689e-08
0.0
0.0
4.29657476845e-08
0.0
8.59314953689e-08
4.29657476845e-08
8.59314953689e-08
1.71862990738e-07
1.71862990738e-07
8.59314953689e-08
2.57794486107e-07
8.59314953689e-08
8.59314953689e-08
1.71862990738e-07
8.59314953689e-08
1.28897243053e-07
0.0
8.59314953689e-08
8.59314953689e-08
8.59314953689e-08
3.8669172916e-07
5.58554719898e-07
5.58554719898e-07
6.87451962951e-07
6.87451962951e-07
9.45246449058e-07
9.45246449058e-07
1.67566415969e-06
1.33193817822e-06
1.71862990738e-06
1.50380116896e-06
1.28897243053e-06
1.54676691664e-06
9.02280701374e-07
4.29657476845e-07
2.14828738422e-07
2.57794486107e-07
1.28897243053e-07
1.28897243053e-07
8.59314953689e-08
8.59314953689e-08
4.29657476845e-08
4.29657476845e-08
0.0
0.0
0.0
4.29657476845e-08
0.0
0.0
0.0
0.0
0.0
0.0
0.0
0.0
0.0
0.0
0.0
