0.0
0.0
0.0
0.0
0.0
0.0
0.0
0.0
0.0
0.0
0.0
0.0
0.0
0.0
0.0
0.0
7.42857485633e-08
3.71428742816e-08
1.48571497127e-07
2.2285724569e-07
2.60000119971e-07
8.91428982759e-07
6.6857173707e-07
9.28571857041e-07
1.85714371408e-06
1.70857221696e-06
1.89428658836e-06
1.74571509124e-06
1.56000071983e-06
1.18857197701e-06
1.48571497127e-06
8.91428982759e-07
6.6857173707e-07
2.97142994253e-07
5.57143114225e-07
3.34285868535e-07
1.85714371408e-07
7.42857485633e-08
1.11428622845e-07
3.71428742816e-08
0.0
3.71428742816e-08
0.0
7.42857485633e-08
0.0
3.71428742816e-08
0.0
0.0
3.71428742816e-08
3.71428742816e-08
3.71428742816e-08
0.0
0.0
0.0
0.0
0.0
0.0
0.0
0.0
0.0
0.0
0.0
0.0
0.0
0.0
0.0
0.0
0.0
0.0
0.0
0.0
0.0
0.0
0.0
0.0
0.0
0.0
0.0
0.0
0.0
0.0
