0.0
0.0
0.0
0.0
0.0
0.0
0.0
0.0
0.0
0.0
0.0
0.0
0.0
0.0
0.0
0.0
0.0
0.0
0.0
0.0
0.0
0.0
0.0
0.0
0.0
0.0
0.0
0.0
0.0
0.0
0.0
0.0
0.0
0.0
0.0
0.0
0.0
0.0
0.0
0.0
0.0
0.0
3.10800339779e-08
0.0
6.21600679559e-08
9.32401019338e-08
6.21600679559e-08
2.17560237846e-07
3.10800339779e-07
3.72960407735e-07
4.97280543647e-07
6.52680713537e-07
1.39860152901e-06
2.45532268426e-06
3.54312387348e-06
3.35664366962e-06
2.36208258232e-06
1.36752149503e-06
8.08080883426e-07
2.79720305801e-07
1.24320135912e-07
6.21600679559e-08
3.10800339779e-08
0.0
0.0
0.0
0.0
0.0
0.0
0.0
0.0
0.0
0.0
0.0
0.0
0.0
0.0
0.0
0.0
0.0
0.0
