0.0
0.0
0.0
0.0
0.0
0.0
0.0
0.0
0.0
0.0
0.0
0.0
0.0
0.0
7.39819213708e-08
7.39819213708e-08
1.84954803427e-07
1.10972882056e-07
6.28846331652e-07
9.98755938506e-07
1.03574689919e-06
1.47963842742e-06
2.36742148387e-06
2.36742148387e-06
2.33043052318e-06
1.62760227016e-06
1.44264746673e-06
8.13801135079e-07
9.6176497782e-07
5.54864410281e-07
5.17873449596e-07
1.84954803427e-07
2.21945764112e-07
7.39819213708e-08
0.0
0.0
3.69909606854e-08
0.0
0.0
0.0
0.0
0.0
0.0
0.0
0.0
0.0
0.0
0.0
0.0
0.0
0.0
0.0
0.0
0.0
0.0
0.0
0.0
0.0
0.0
0.0
0.0
0.0
0.0
0.0
0.0
0.0
0.0
0.0
0.0
0.0
0.0
0.0
0.0
0.0
0.0
0.0
0.0
0.0
0.0
0.0
0.0
