0.0
0.0
0.0
0.0
0.0
0.0
0.0
0.0
0.0
0.0
0.0
0.0
0.0
0.0
0.0
0.0
0.0
0.0
0.0
0.0
0.0
0.0
0.0
0.0
0.0
0.0
0.0
4.83651865646e-08
9.67303731292e-08
1.45095559694e-07
3.86921492517e-07
9.18938544727e-07
8.70573358163e-07
2.41825932823e-06
1.83787708945e-06
2.66008526105e-06
2.07970302228e-06
1.93460746258e-06
1.59605115663e-06
9.67303731292e-07
4.35286679081e-07
3.38556305952e-07
4.83651865646e-07
1.93460746258e-07
2.41825932823e-07
9.67303731292e-08
4.83651865646e-08
0.0
0.0
4.83651865646e-08
1.45095559694e-07
4.83651865646e-08
0.0
0.0
4.83651865646e-08
0.0
0.0
0.0
0.0
0.0
0.0
0.0
0.0
0.0
0.0
0.0
0.0
0.0
0.0
0.0
0.0
0.0
0.0
0.0
0.0
0.0
0.0
0.0
0.0
0.0
0.0
