0.0
0.0
0.0
0.0
0.0
0.0
0.0
0.0
0.0
0.0
0.0
0.0
0.0
0.0
0.0
0.0
0.0
0.0
0.0
0.0
0.0
0.0
0.0
0.0
0.0
0.0
0.0
0.0
0.0
0.0
0.0
0.0
0.0
0.0
0.0
0.0
0.0
0.0
0.0
0.0
0.0
0.0
0.0
0.0
2.30134602737e-08
2.30134602737e-08
1.61094221916e-07
5.5232304657e-07
5.75336506843e-07
2.20929218628e-06
4.85584011776e-06
4.87885357803e-06
2.87668253422e-06
1.21971339451e-06
5.06296126022e-07
1.61094221916e-07
4.60269205475e-08
0.0
0.0
0.0
0.0
0.0
0.0
0.0
0.0
0.0
0.0
0.0
0.0
0.0
0.0
0.0
0.0
0.0
0.0
0.0
0.0
0.0
0.0
0.0
0.0
