0.0
0.0
0.0
0.0
0.0
0.0
0.0
0.0
0.0
0.0
0.0
0.0
0.0
0.0
0.0
0.0
0.0
0.0
0.0
0.0
0.0
0.0
1.17458310228e-07
1.17458310228e-07
0.0
1.76187465342e-07
1.17458310228e-07
1.17458310228e-07
2.34916620457e-07
4.11104085799e-07
1.17458310228e-07
4.69833240913e-07
5.87291551142e-07
1.17458310228e-07
4.11104085799e-07
1.76187465342e-07
3.52374930685e-07
1.76187465342e-07
1.76187465342e-07
2.34916620457e-07
1.17458310228e-07
2.34916620457e-07
1.17458310228e-07
4.69833240913e-07
6.46020706256e-07
7.0474986137e-07
4.69833240913e-07
8.80937326712e-07
1.29204141251e-06
1.2333122574e-06
1.05712479205e-06
1.76187465342e-06
1.58568718808e-06
1.17458310228e-06
4.69833240913e-07
6.46020706256e-07
5.87291551142e-07
1.17458310228e-07
1.76187465342e-07
1.17458310228e-07
5.87291551142e-08
5.87291551142e-08
0.0
0.0
0.0
0.0
0.0
0.0
0.0
0.0
0.0
0.0
0.0
0.0
0.0
0.0
0.0
0.0
0.0
0.0
0.0
