0.0
0.0
0.0
0.0
0.0
0.0
0.0
0.0
0.0
0.0
0.0
0.0
0.0
0.0
0.0
3.69909606854e-08
2.21945764112e-07
1.47963842742e-07
2.95927685483e-07
5.54864410281e-07
1.07273785988e-06
1.62760227016e-06
1.92352995564e-06
2.21945764112e-06
2.55237628729e-06
2.33043052318e-06
1.70158419153e-06
1.14671978125e-06
7.39819213708e-07
3.32918646169e-07
6.65837292337e-07
1.84954803427e-07
7.39819213708e-08
1.84954803427e-07
7.39819213708e-08
0.0
0.0
0.0
0.0
0.0
0.0
0.0
0.0
0.0
0.0
0.0
0.0
0.0
0.0
0.0
0.0
0.0
0.0
0.0
0.0
0.0
0.0
0.0
0.0
0.0
0.0
0.0
0.0
0.0
0.0
0.0
0.0
0.0
0.0
0.0
0.0
0.0
0.0
0.0
0.0
0.0
0.0
0.0
0.0
0.0
0.0
