0.0
0.0
0.0
0.0
0.0
0.0
0.0
0.0
0.0
0.0
0.0
0.0
0.0
0.0
0.0
0.0
0.0
0.0
0.0
0.0
0.0
0.0
0.0
0.0
0.0
0.0
0.0
0.0
0.0
0.0
0.0
0.0
0.0
0.0
0.0
0.0
0.0
0.0
0.0
0.0
0.0
0.0
0.0
2.30134602737e-08
1.15067301369e-07
2.53148063011e-07
5.29309586296e-07
1.03560571232e-06
1.58792875889e-06
2.23230564655e-06
3.31393827942e-06
3.82023440544e-06
2.53148063011e-06
1.58792875889e-06
7.13417268486e-07
3.45201904106e-07
0.0
0.0
0.0
0.0
0.0
0.0
0.0
0.0
0.0
0.0
0.0
0.0
0.0
0.0
0.0
0.0
0.0
0.0
0.0
0.0
0.0
0.0
0.0
0.0
0.0
