0.0
0.0
0.0
0.0
0.0
0.0
0.0
0.0
0.0
0.0
0.0
0.0
0.0
0.0
0.0
0.0
0.0
0.0
0.0
0.0
0.0
0.0
0.0
0.0
0.0
3.71428742816e-08
0.0
2.60000119971e-07
8.17143234196e-07
7.42857485633e-07
2.60000119971e-06
3.56571593104e-06
4.08571617098e-06
3.6400016796e-06
1.22571485129e-06
7.80000359914e-07
1.48571497127e-07
1.11428622845e-07
0.0
3.71428742816e-08
3.71428742816e-08
0.0
0.0
0.0
0.0
0.0
0.0
0.0
0.0
0.0
0.0
0.0
0.0
0.0
0.0
0.0
0.0
0.0
0.0
0.0
0.0
0.0
0.0
0.0
0.0
0.0
0.0
0.0
0.0
0.0
0.0
0.0
0.0
0.0
0.0
0.0
0.0
0.0
0.0
0.0
0.0
