0.0
0.0
0.0
0.0
0.0
0.0
0.0
0.0
0.0
0.0
0.0
0.0
0.0
0.0
0.0
0.0
0.0
0.0
0.0
0.0
0.0
0.0
0.0
0.0
0.0
0.0
0.0
0.0
0.0
0.0
0.0
0.0
0.0
3.30083572539e-08
6.60167145079e-08
0.0
0.0
6.60167145079e-08
3.30083572539e-08
0.0
3.30083572539e-08
3.30083572539e-08
6.60167145079e-08
3.30083572539e-08
1.6504178627e-07
1.6504178627e-07
3.30083572539e-07
3.30083572539e-07
4.29108644301e-07
6.93175502333e-07
6.93175502333e-07
9.90250717618e-07
1.7164345772e-06
1.78245129171e-06
1.6504178627e-06
2.079526507e-06
1.6504178627e-06
1.74944293446e-06
9.90250717618e-07
6.93175502333e-07
7.59192216841e-07
4.29108644301e-07
1.6504178627e-07
9.90250717618e-08
9.90250717618e-08
0.0
3.30083572539e-08
0.0
0.0
3.30083572539e-08
0.0
0.0
0.0
0.0
0.0
0.0
0.0
0.0
0.0
0.0
0.0
