0.0
0.0
0.0
0.0
0.0
0.0
0.0
0.0
0.0
0.0
0.0
0.0
0.0
0.0
0.0
0.0
0.0
3.71428742816e-08
7.42857485633e-08
1.85714371408e-07
1.85714371408e-07
4.82857365661e-07
8.91428982759e-07
9.65714731323e-07
1.52285784555e-06
2.11714383405e-06
1.33714347414e-06
2.30285820546e-06
1.4114292227e-06
1.33714347414e-06
1.44857209698e-06
8.17143234196e-07
9.28571857041e-07
5.20000239943e-07
4.08571617098e-07
4.4571449138e-07
1.48571497127e-07
1.11428622845e-07
1.11428622845e-07
0.0
3.71428742816e-08
7.42857485633e-08
3.71428742816e-08
0.0
0.0
0.0
3.71428742816e-08
7.42857485633e-08
0.0
0.0
3.71428742816e-08
0.0
0.0
0.0
0.0
0.0
0.0
0.0
0.0
0.0
0.0
0.0
0.0
0.0
0.0
0.0
0.0
0.0
0.0
0.0
0.0
0.0
0.0
0.0
0.0
0.0
0.0
0.0
0.0
0.0
0.0
