0.0
0.0
0.0
0.0
0.0
0.0
0.0
0.0
0.0
0.0
0.0
0.0
0.0
0.0
0.0
3.69909606854e-08
0.0
3.69909606854e-08
3.69909606854e-08
1.84954803427e-07
3.69909606854e-07
9.24774017135e-07
1.92352995564e-06
2.33043052318e-06
2.55237628729e-06
3.0332587762e-06
2.0345028377e-06
1.92352995564e-06
9.24774017135e-07
7.39819213708e-07
4.43891528225e-07
1.47963842742e-07
3.32918646169e-07
7.39819213708e-08
3.69909606854e-08
0.0
0.0
0.0
0.0
0.0
0.0
0.0
0.0
0.0
0.0
0.0
0.0
0.0
0.0
0.0
0.0
0.0
0.0
0.0
0.0
0.0
0.0
0.0
0.0
0.0
0.0
0.0
0.0
0.0
0.0
0.0
0.0
0.0
0.0
0.0
0.0
0.0
0.0
0.0
0.0
0.0
0.0
0.0
0.0
0.0
0.0
