0.0
0.0
0.0
0.0
0.0
0.0
0.0
0.0
0.0
0.0
0.0
0.0
0.0
0.0
0.0
0.0
4.42263564185e-08
0.0
0.0
0.0
0.0
8.8452712837e-08
1.76905425674e-07
1.32679069255e-07
2.65358138511e-07
5.30716277022e-07
9.72979841207e-07
1.23833797972e-06
1.37101704897e-06
1.94595968241e-06
2.16709146451e-06
2.07863875167e-06
1.90173332599e-06
1.32679069255e-06
1.28256433614e-06
6.19168989859e-07
6.19168989859e-07
2.65358138511e-07
2.65358138511e-07
4.42263564185e-08
0.0
4.42263564185e-08
0.0
4.42263564185e-08
0.0
4.42263564185e-08
1.32679069255e-07
0.0
4.42263564185e-08
8.8452712837e-08
8.8452712837e-08
1.32679069255e-07
0.0
1.32679069255e-07
0.0
0.0
0.0
0.0
0.0
0.0
0.0
0.0
0.0
0.0
0.0
0.0
0.0
0.0
0.0
0.0
0.0
0.0
0.0
0.0
0.0
0.0
0.0
0.0
0.0
0.0
0.0
