0.0
0.0
0.0
0.0
0.0
0.0
0.0
0.0
0.0
0.0
0.0
0.0
0.0
0.0
0.0
0.0
0.0
0.0
0.0
0.0
0.0
0.0
5.87291551142e-08
1.17458310228e-07
0.0
1.17458310228e-07
1.76187465342e-07
5.87291551142e-08
3.52374930685e-07
3.52374930685e-07
1.17458310228e-07
1.76187465342e-07
6.46020706256e-07
2.34916620457e-07
4.69833240913e-07
2.34916620457e-07
3.52374930685e-07
1.76187465342e-07
2.93645775571e-07
2.34916620457e-07
1.17458310228e-07
1.76187465342e-07
3.52374930685e-07
4.69833240913e-07
7.0474986137e-07
6.46020706256e-07
5.87291551142e-07
8.80937326712e-07
1.05712479205e-06
8.80937326712e-07
1.17458310228e-06
2.055520429e-06
1.82060380854e-06
9.39666481826e-07
6.46020706256e-07
4.69833240913e-07
5.87291551142e-07
2.34916620457e-07
0.0
5.87291551142e-08
5.87291551142e-08
0.0
0.0
0.0
0.0
0.0
0.0
0.0
0.0
0.0
0.0
0.0
0.0
0.0
0.0
0.0
0.0
0.0
0.0
0.0
0.0
