0.0
0.0
0.0
0.0
0.0
0.0
0.0
0.0
0.0
0.0
0.0
0.0
0.0
0.0
0.0
0.0
0.0
0.0
0.0
0.0
0.0
0.0
0.0
0.0
0.0
0.0
0.0
0.0
0.0
0.0
0.0
0.0
0.0
0.0
0.0
0.0
0.0
0.0
0.0
0.0
0.0
2.32202564508e-08
2.32202564508e-08
4.64405129016e-08
9.28810258031e-08
2.78643077409e-07
3.94744359663e-07
1.64863820801e-06
2.46134718378e-06
3.90100308373e-06
4.3886284692e-06
2.04338256767e-06
1.62541795155e-06
6.50167180622e-07
3.48303846762e-07
1.16101282254e-07
4.64405129016e-08
0.0
0.0
0.0
0.0
0.0
0.0
0.0
0.0
0.0
0.0
0.0
0.0
0.0
0.0
0.0
0.0
0.0
0.0
0.0
0.0
0.0
0.0
0.0
0.0
