0.0
0.0
0.0
0.0
0.0
0.0
0.0
0.0
0.0
0.0
0.0
0.0
0.0
0.0
0.0
0.0
0.0
0.0
0.0
0.0
0.0
0.0
0.0
0.0
0.0
0.0
0.0
0.0
0.0
0.0
0.0
0.0
0.0
0.0
0.0
0.0
0.0
0.0
0.0
0.0
0.0
0.0
0.0
6.60167145079e-08
1.32033429016e-07
1.98050143524e-07
2.31058500778e-07
3.30083572539e-07
7.92200574095e-07
9.57242360364e-07
1.45236771917e-06
2.73969365208e-06
3.66392765519e-06
3.43286915441e-06
2.57465186581e-06
9.2423400311e-07
4.62117001555e-07
1.32033429016e-07
0.0
0.0
0.0
0.0
0.0
0.0
0.0
0.0
0.0
0.0
0.0
0.0
0.0
0.0
0.0
0.0
0.0
0.0
0.0
0.0
0.0
0.0
0.0
