0.0
0.0
0.0
0.0
0.0
0.0
0.0
0.0
0.0
0.0
0.0
0.0
0.0
0.0
0.0
0.0
0.0
0.0
0.0
0.0
0.0
0.0
0.0
9.67303731292e-08
0.0
0.0
0.0
3.38556305952e-07
2.90191119388e-07
3.86921492517e-07
7.25477798469e-07
1.30586003724e-06
1.20912966411e-06
2.46662451479e-06
2.03133783571e-06
2.27316376854e-06
1.59605115663e-06
1.4993207835e-06
8.22208171598e-07
6.2874742534e-07
9.67303731292e-08
1.45095559694e-07
5.80382238775e-07
1.93460746258e-07
1.93460746258e-07
4.83651865646e-08
2.90191119388e-07
4.83651865646e-08
1.93460746258e-07
1.45095559694e-07
9.67303731292e-08
1.45095559694e-07
9.67303731292e-08
1.45095559694e-07
0.0
0.0
0.0
0.0
0.0
0.0
0.0
0.0
0.0
0.0
0.0
0.0
0.0
0.0
0.0
0.0
0.0
0.0
0.0
0.0
0.0
0.0
0.0
0.0
0.0
0.0
0.0
