0.0
0.0
0.0
0.0
0.0
0.0
0.0
0.0
0.0
0.0
0.0
0.0
0.0
0.0
0.0
0.0
0.0
0.0
0.0
0.0
0.0
0.0
0.0
0.0
0.0
0.0
0.0
0.0
0.0
0.0
0.0
0.0
0.0
0.0
0.0
0.0
0.0
0.0
0.0
0.0
0.0
0.0
0.0
0.0
0.0
0.0
0.0
0.0
0.0
0.0
0.0
0.0
4.41184872565e-08
0.0
0.0
8.8236974513e-08
2.64710923539e-07
5.73540334334e-07
7.05895796104e-07
1.27943613044e-06
1.63238402849e-06
2.69122772265e-06
2.91182015893e-06
2.77946469716e-06
2.42651679911e-06
1.41179159221e-06
1.05884369416e-06
1.76473949026e-07
0.0
4.41184872565e-08
0.0
0.0
0.0
0.0
0.0
0.0
0.0
0.0
0.0
0.0
0.0
