0.0
0.0
0.0
0.0
0.0
0.0
0.0
0.0
0.0
0.0
0.0
0.0
0.0
0.0
0.0
0.0
0.0
0.0
0.0
0.0
0.0
0.0
0.0
0.0
0.0
3.71428742816e-08
7.42857485633e-08
4.08571617098e-07
6.31428862788e-07
1.04000047989e-06
2.74857269684e-06
3.49143018247e-06
4.12285904526e-06
3.26857293678e-06
1.07714335417e-06
7.42857485633e-07
2.2285724569e-07
1.48571497127e-07
0.0
0.0
3.71428742816e-08
3.71428742816e-08
0.0
0.0
0.0
0.0
0.0
0.0
0.0
0.0
0.0
0.0
0.0
0.0
0.0
0.0
0.0
0.0
0.0
0.0
0.0
0.0
0.0
0.0
0.0
0.0
0.0
0.0
0.0
0.0
0.0
0.0
0.0
0.0
0.0
0.0
0.0
0.0
0.0
0.0
0.0
