0.0
0.0
0.0
0.0
0.0
0.0
0.0
0.0
0.0
0.0
0.0
0.0
0.0
0.0
0.0
0.0
0.0
0.0
0.0
0.0
0.0
0.0
0.0
0.0
0.0
0.0
0.0
0.0
1.28897243053e-07
4.29657476845e-08
4.29657476845e-08
8.59314953689e-08
1.71862990738e-07
8.59314953689e-08
4.29657476845e-08
1.28897243053e-07
1.28897243053e-07
1.71862990738e-07
1.28897243053e-07
1.28897243053e-07
4.29657476845e-08
3.00760233791e-07
2.57794486107e-07
6.01520467582e-07
7.30417710636e-07
8.59314953689e-07
9.45246449058e-07
8.59314953689e-07
1.50380116896e-06
1.9334586458e-06
1.84752715043e-06
2.06235588885e-06
1.76159565506e-06
1.58973266433e-06
7.30417710636e-07
3.00760233791e-07
1.28897243053e-07
1.71862990738e-07
4.29657476845e-08
1.28897243053e-07
0.0
0.0
0.0
0.0
0.0
0.0
0.0
0.0
0.0
0.0
0.0
0.0
0.0
0.0
0.0
0.0
0.0
0.0
0.0
0.0
0.0
