0.0
0.0
0.0
0.0
0.0
0.0
0.0
0.0
0.0
0.0
0.0
0.0
0.0
0.0
0.0
0.0
0.0
0.0
0.0
0.0
0.0
0.0
0.0
0.0
0.0
0.0
0.0
8.59314953689e-08
4.29657476845e-08
0.0
1.28897243053e-07
1.71862990738e-07
8.59314953689e-08
1.28897243053e-07
0.0
1.28897243053e-07
2.14828738422e-07
1.28897243053e-07
1.71862990738e-07
8.59314953689e-08
1.28897243053e-07
2.14828738422e-07
1.71862990738e-07
4.29657476845e-07
8.16349206005e-07
8.59314953689e-07
8.59314953689e-07
9.45246449058e-07
1.20304093516e-06
1.89049289812e-06
1.89049289812e-06
1.76159565506e-06
1.89049289812e-06
1.67566415969e-06
7.30417710636e-07
3.8669172916e-07
4.29657476845e-07
2.57794486107e-07
0.0
1.28897243053e-07
4.29657476845e-08
0.0
0.0
0.0
0.0
0.0
0.0
0.0
0.0
0.0
0.0
0.0
0.0
0.0
0.0
0.0
0.0
0.0
0.0
0.0
0.0
