0.0
0.0
0.0
0.0
0.0
0.0
0.0
0.0
0.0
0.0
0.0
0.0
0.0
0.0
0.0
0.0
0.0
0.0
0.0
0.0
0.0
0.0
4.83651865646e-08
1.45095559694e-07
4.83651865646e-08
2.41825932823e-07
1.45095559694e-07
4.35286679081e-07
7.25477798469e-07
6.2874742534e-07
1.6444163432e-06
1.98297264915e-06
2.07970302228e-06
1.4993207835e-06
1.74114671633e-06
1.54768597007e-06
6.77112611904e-07
1.20912966411e-06
4.35286679081e-07
2.41825932823e-07
1.93460746258e-07
1.45095559694e-07
9.67303731292e-08
4.83651865646e-08
2.41825932823e-07
9.67303731292e-08
2.41825932823e-07
2.90191119388e-07
9.67303731292e-08
2.90191119388e-07
3.38556305952e-07
4.83651865646e-08
9.67303731292e-08
2.41825932823e-07
9.67303731292e-08
0.0
4.83651865646e-08
0.0
0.0
0.0
0.0
0.0
0.0
0.0
0.0
0.0
0.0
0.0
0.0
0.0
0.0
0.0
0.0
0.0
0.0
0.0
0.0
0.0
0.0
0.0
0.0
