0.0
0.0
0.0
0.0
0.0
0.0
0.0
0.0
0.0
0.0
0.0
0.0
0.0
0.0
0.0
0.0
0.0
0.0
0.0
0.0
0.0
0.0
0.0
7.42857485633e-08
1.11428622845e-07
1.11428622845e-07
4.4571449138e-07
8.17143234196e-07
1.04000047989e-06
2.04285808549e-06
2.56285832543e-06
3.45428730819e-06
3.38000155963e-06
1.67142934267e-06
1.11428622845e-06
5.57143114225e-07
3.71428742816e-07
1.11428622845e-07
3.71428742816e-08
0.0
7.42857485633e-08
3.71428742816e-08
0.0
0.0
3.71428742816e-08
0.0
0.0
3.71428742816e-08
0.0
0.0
0.0
0.0
0.0
0.0
0.0
0.0
0.0
0.0
0.0
0.0
0.0
0.0
0.0
0.0
0.0
0.0
0.0
0.0
0.0
0.0
0.0
0.0
0.0
0.0
0.0
0.0
0.0
0.0
0.0
0.0
0.0
