0.0
0.0
0.0
0.0
0.0
0.0
0.0
0.0
0.0
0.0
0.0
0.0
0.0
0.0
0.0
0.0
0.0
0.0
0.0
0.0
0.0
0.0
0.0
0.0
0.0
0.0
0.0
0.0
0.0
0.0
0.0
0.0
1.37555739735e-07
3.43889349338e-08
0.0
0.0
0.0
3.43889349338e-08
6.87778698675e-08
1.71944674669e-07
1.03166804801e-07
1.71944674669e-07
2.06333609603e-07
4.81445089073e-07
7.22167633609e-07
8.94112308278e-07
9.28501243212e-07
1.06605698295e-06
1.89139142136e-06
1.99455822616e-06
2.4416143803e-06
2.02894716109e-06
1.65066887682e-06
1.37555739735e-06
7.22167633609e-07
5.15834024006e-07
1.37555739735e-07
2.40722544536e-07
3.43889349338e-08
0.0
3.43889349338e-08
0.0
0.0
0.0
0.0
0.0
0.0
0.0
0.0
0.0
0.0
0.0
0.0
0.0
0.0
0.0
0.0
0.0
0.0
0.0
0.0
