6.00150217077
692.0
6.07079450072
692.0
6.13183646889
692.0
6.18447033285
692.0
6.22820115774
692.0
6.26394645441
692.0
6.29311577424
692.0
6.31837337192
692.0
6.33961070912
692.0
6.35630680174
692.0
6.37055137482
692.0
6.38282199711
692.0
6.39347756874
692.0
6.40301736614
692.0
6.40979884226
692.0
6.41424457308
692.0
6.41727496382
692.0
6.41682199711
692.0
6.41330101302
692.0
6.40729522431
692.0
6.39807525326
692.0
6.3872633864
692.0
6.37357018813
692.0
6.35710564399
692.0
6.34017945007
692.0
6.32349782923
692.0
6.30632706223
692.0
6.2902040521
692.0
6.27469464544
692.0
6.25961939219
692.0
6.24583791606
692.0
6.23296960926
692.0
6.22065991317
692.0
6.20846454414
692.0
6.19694934877
692.0
6.18489146165
692.0
6.17270477569
692.0
6.16109551375
692.0
6.14932706223
692.0
6.13932127352
692.0
6.13105643994
692.0
6.12376700434
692.0
6.11711287988
692.0
6.1121186686
692.0
6.10880173661
692.0
6.10649493488
692.0
6.10568306802
692.0
6.10582344428
692.0
6.10724891462
692.0
6.10939218524
692.0
6.11257163531
692.0
6.11648480463
692.0
6.12083212735
692.0
6.12460636758
692.0
6.13729130435
691.0
6.14350434783
691.0
6.1503115942
691.0
6.15863043478
691.0
6.16859130435
691.0
6.17858695652
691.0
6.18852463768
691.0
6.19800289855
691.0
6.20896956522
691.0
6.22067681159
691.0
6.23286231884
691.0
6.24536086957
691.0
6.25912318841
691.0
6.27279130435
691.0
6.28668550725
691.0
6.30085942029
691.0
6.31557536232
691.0
6.33052318841
691.0
6.34462028986
691.0
6.35790144928
691.0
6.37071304348
691.0
6.38449565217
691.0
6.39844927536
691.0
6.41333188406
691.0
6.42873768116
691.0
6.44485507246
691.0
6.4609115942
691.0
6.47748695652
691.0
6.49506811594
691.0
6.51191014493
691.0
6.52732608696
691.0
6.54098550725
691.0
6.56423802612
690.0
6.57706386067
690.0
6.58975761974
690.0
6.60121044993
690.0
6.61313642961
690.0
6.6261509434
690.0
6.63933526851
690.0
6.65307402032
690.0
6.66635268505
690.0
6.67960667634
690.0
6.69245718433
690.0
6.70379680697
690.0
6.71398113208
690.0
6.72321190131
690.0
6.73140058055
690.0
6.74978343023
689.0
6.75687645349
689.0
6.76584011628
689.0
6.77457848837
689.0
6.78301598837
689.0
6.79000145349
689.0
6.79654360465
689.0
6.8033125
689.0
6.80936773256
689.0
6.81420784884
689.0
6.81873982558
689.0
6.82317732558
689.0
6.82838081395
689.0
6.83358284884
689.0
6.83891133721
689.0
6.86274198251
687.0
6.8665058309
687.0
6.86999125364
687.0
6.87306268222
687.0
6.87621720117
687.0
6.8794941691
687.0
6.883
687.0
6.88685276968
687.0
6.8923090379
687.0
6.88839883552
688.0
6.89447889374
688.0
6.90101310044
688.0
6.90798107715
688.0
6.91605531295
688.0
6.92364483261
688.0
6.93118195051
688.0
6.93812954876
688.0
6.94564774381
688.0
6.95392576419
688.0
6.96283260553
688.0
6.97272197962
688.0
6.99244023324
687.0
7.00279737609
687.0
7.01327113703
687.0
7.02301895044
687.0
7.03302040816
687.0
7.04217784257
687.0
7.0519271137
687.0
7.06084402332
687.0
7.06964723032
687.0
7.08182944606
687.0
7.09225801749
687.0
7.10347521866
687.0
7.11455685131
687.0
7.1262303207
687.0
7.13788629738
687.0
7.14906705539
687.0
7.16299708455
687.0
7.17349854227
687.0
7.18313119534
687.0
7.19206559767
687.0
7.20103061224
687.0
7.21000728863
687.0
7.21903498542
687.0
7.22735860058
687.0
