0.0
0.0
0.0
0.0
0.0
0.0
0.0
0.0
0.0
0.0
0.0
0.0
0.0
0.0
0.0
0.0
0.0
0.0
0.0
0.0
0.0
0.0
0.0
0.0
0.0
0.0
0.0
0.0
0.0
0.0
0.0
0.0
0.0
0.0
0.0
0.0
0.0
0.0
0.0
0.0
0.0
0.0
0.0
0.0
0.0
0.0
0.0
0.0
0.0
0.0
0.0
0.0
0.0
0.0
0.0
0.0
0.0
0.0
0.0
0.0
0.0
0.0
0.0
0.0
0.0
0.0
0.0
0.0
0.0
0.0
0.0
0.0
0.0
0.0
0.0
0.0
0.0
0.0
0.0
0.0
0.0
0.0
0.0
0.0
0.0
0.0
0.0
0.0
0.0
0.0
0.0
0.0
0.0
0.0
0.0
0.0
0.0
0.0
0.0
0.0
0.0
0.0
0.0
0.0
0.0
0.0
0.0
0.0
0.0
0.0
0.0
0.0
0.0
0.0
0.0
0.0
0.0
0.0
0.0
0.0
0.0
0.0
0.0
0.0
0.0
0.0
0.0
0.0
0.0
0.0
0.0
0.0
0.0
0.0
0.0
0.0
0.0
0.0
0.0
0.0
0.0
0.0
0.0
0.0
0.0
0.0
0.0
0.0
0.0
0.0
0.0
0.0
0.0
0.0
0.0
0.0
0.0
0.0
0.0
0.0
0.0
0.0
0.0
0.0
0.0
0.0
0.0
0.0
0.0
0.0
0.0
0.0
0.0
0.0
0.0
0.0
0.0
0.0
0.0
0.0
0.0
0.0
0.0
0.0
0.0
0.0
0.0
0.0
0.0
0.0
0.0
0.0
0.0
0.0
0.0
0.0
0.0
0.0
0.0
0.0
0.0
0.0
0.0
0.0
0.0
0.0
0.0
0.0
0.0
0.0
0.0
0.0
0.0
0.0
0.0
0.0
0.0
0.0
0.0
0.0
0.0
0.0
0.0
0.0
0.0
0.0
0.0
0.0
0.0
0.0
0.0
0.0
0.0
0.0
0.0
0.0
0.0
0.0
0.0
0.0
0.0
0.0
1.70969563092e-07
0.0
1.70969563092e-07
0.0
0.0
0.0
0.0
0.0
1.70969563092e-07
0.0
1.70969563092e-07
0.0
0.0
3.41939126184e-07
6.83878252369e-07
1.70969563092e-07
0.0
1.70969563092e-07
5.12908689277e-07
5.12908689277e-07
1.70969563092e-07
1.70969563092e-07
5.12908689277e-07
1.70969563092e-07
5.12908689277e-07
3.41939126184e-07
1.70969563092e-07
3.41939126184e-07
1.19678694165e-06
8.54847815461e-07
6.83878252369e-07
1.02581737855e-06
1.70969563092e-06
1.36775650474e-06
1.53872606783e-06
1.36775650474e-06
8.54847815461e-07
8.54847815461e-07
8.54847815461e-07
1.36775650474e-06
1.70969563092e-06
1.53872606783e-06
1.36775650474e-06
1.88066519401e-06
2.39357388329e-06
1.19678694165e-06
1.70969563092e-06
1.88066519401e-06
1.53872606783e-06
1.19678694165e-06
2.90648257257e-06
2.2226043202e-06
2.05163475711e-06
1.53872606783e-06
1.02581737855e-06
2.73551300948e-06
1.53872606783e-06
2.56454344638e-06
1.70969563092e-06
1.88066519401e-06
1.53872606783e-06
2.2226043202e-06
2.73551300948e-06
1.88066519401e-06
1.19678694165e-06
8.54847815461e-07
2.56454344638e-06
1.02581737855e-06
1.02581737855e-06
1.36775650474e-06
8.54847815461e-07
1.36775650474e-06
1.88066519401e-06
8.54847815461e-07
5.12908689277e-07
1.19678694165e-06
5.12908689277e-07
8.54847815461e-07
6.83878252369e-07
8.54847815461e-07
6.83878252369e-07
8.54847815461e-07
3.41939126184e-07
3.41939126184e-07
1.70969563092e-07
5.12908689277e-07
3.41939126184e-07
1.02581737855e-06
1.36775650474e-06
5.12908689277e-07
5.12908689277e-07
1.70969563092e-07
3.41939126184e-07
1.70969563092e-07
1.70969563092e-07
1.70969563092e-07
0.0
1.70969563092e-07
0.0
0.0
0.0
0.0
1.70969563092e-07
1.70969563092e-07
0.0
0.0
1.70969563092e-07
0.0
0.0
0.0
0.0
0.0
0.0
0.0
0.0
0.0
0.0
0.0
0.0
0.0
0.0
0.0
0.0
0.0
0.0
0.0
0.0
0.0
0.0
0.0
0.0
0.0
0.0
0.0
0.0
0.0
0.0
0.0
0.0
0.0
0.0
0.0
0.0
0.0
0.0
0.0
0.0
0.0
0.0
0.0
0.0
0.0
0.0
0.0
0.0
0.0
0.0
0.0
0.0
