0.0
0.0
0.0
0.0
0.0
0.0
0.0
0.0
0.0
0.0
0.0
0.0
0.0
0.0
0.0
0.0
0.0
0.0
0.0
0.0
0.0
0.0
0.0
0.0
0.0
0.0
0.0
0.0
0.0
0.0
0.0
0.0
0.0
0.0
0.0
0.0
0.0
0.0
0.0
0.0
0.0
0.0
0.0
0.0
0.0
0.0
0.0
0.0
0.0
0.0
0.0
0.0
0.0
0.0
0.0
0.0
0.0
0.0
0.0
0.0
0.0
0.0
0.0
0.0
0.0
0.0
0.0
0.0
0.0
0.0
0.0
0.0
0.0
0.0
0.0
0.0
0.0
0.0
0.0
0.0
0.0
0.0
0.0
0.0
0.0
0.0
0.0
0.0
0.0
0.0
0.0
0.0
0.0
0.0
0.0
0.0
0.0
0.0
0.0
0.0
0.0
0.0
0.0
0.0
0.0
0.0
0.0
0.0
0.0
0.0
0.0
0.0
0.0
0.0
0.0
0.0
0.0
0.0
0.0
0.0
0.0
0.0
0.0
0.0
0.0
0.0
0.0
0.0
0.0
0.0
0.0
0.0
0.0
0.0
0.0
0.0
0.0
1.68422530495e-07
0.0
0.0
1.68422530495e-07
0.0
1.68422530495e-07
0.0
0.0
0.0
0.0
0.0
3.3684506099e-07
0.0
0.0
1.68422530495e-07
0.0
1.68422530495e-07
0.0
0.0
0.0
0.0
0.0
5.05267591485e-07
1.68422530495e-07
0.0
0.0
0.0
0.0
0.0
0.0
0.0
5.05267591485e-07
1.68422530495e-07
1.68422530495e-07
0.0
0.0
0.0
0.0
0.0
1.68422530495e-07
1.68422530495e-07
0.0
0.0
1.68422530495e-07
0.0
1.68422530495e-07
1.68422530495e-07
3.3684506099e-07
1.68422530495e-07
1.68422530495e-07
0.0
1.68422530495e-07
5.05267591485e-07
1.68422530495e-07
0.0
0.0
1.68422530495e-07
0.0
1.68422530495e-07
0.0
1.68422530495e-07
1.68422530495e-07
1.68422530495e-07
0.0
0.0
1.68422530495e-07
0.0
1.68422530495e-07
1.68422530495e-07
1.68422530495e-07
3.3684506099e-07
1.68422530495e-07
8.42112652475e-07
8.42112652475e-07
1.68422530495e-07
0.0
5.05267591485e-07
3.3684506099e-07
1.68422530495e-07
5.05267591485e-07
5.05267591485e-07
5.05267591485e-07
5.05267591485e-07
1.34738024396e-06
1.01053518297e-06
8.42112652475e-07
1.68422530495e-07
1.17895771346e-06
6.7369012198e-07
1.17895771346e-06
6.7369012198e-07
1.85264783544e-06
1.51580277445e-06
1.17895771346e-06
1.01053518297e-06
1.01053518297e-06
1.01053518297e-06
6.7369012198e-07
1.01053518297e-06
1.01053518297e-06
1.85264783544e-06
1.34738024396e-06
1.51580277445e-06
1.85264783544e-06
1.01053518297e-06
1.68422530495e-06
1.01053518297e-06
1.34738024396e-06
2.52633795742e-06
1.68422530495e-06
1.68422530495e-06
1.17895771346e-06
5.05267591485e-07
3.03160554891e-06
1.51580277445e-06
1.85264783544e-06
1.51580277445e-06
2.69476048792e-06
2.02107036594e-06
2.02107036594e-06
2.35791542693e-06
2.52633795742e-06
2.18949289643e-06
2.18949289643e-06
1.01053518297e-06
1.85264783544e-06
1.85264783544e-06
1.51580277445e-06
1.85264783544e-06
1.17895771346e-06
1.01053518297e-06
8.42112652475e-07
6.7369012198e-07
3.3684506099e-07
1.34738024396e-06
8.42112652475e-07
8.42112652475e-07
1.68422530495e-07
5.05267591485e-07
0.0
1.68422530495e-07
0.0
1.68422530495e-07
1.68422530495e-07
5.05267591485e-07
0.0
5.05267591485e-07
0.0
0.0
1.68422530495e-07
1.68422530495e-07
0.0
0.0
0.0
0.0
3.3684506099e-07
0.0
1.68422530495e-07
0.0
0.0
0.0
0.0
0.0
0.0
0.0
0.0
0.0
0.0
0.0
0.0
0.0
0.0
0.0
0.0
0.0
0.0
0.0
0.0
0.0
0.0
0.0
0.0
0.0
0.0
0.0
0.0
0.0
0.0
0.0
0.0
0.0
0.0
0.0
0.0
0.0
0.0
0.0
0.0
0.0
0.0
0.0
0.0
0.0
0.0
0.0
0.0
0.0
0.0
0.0
0.0
0.0
0.0
0.0
0.0
0.0
0.0
0.0
0.0
0.0
0.0
0.0
0.0
0.0
0.0
0.0
0.0
0.0
0.0
0.0
0.0
0.0
0.0
0.0
0.0
0.0
0.0
0.0
0.0
0.0
0.0
0.0
0.0
0.0
0.0
0.0
0.0
0.0
0.0
0.0
0.0
0.0
0.0
0.0
0.0
0.0
0.0
0.0
0.0
0.0
0.0
0.0
0.0
0.0
0.0
