0.0
0.0
0.0
0.0
0.0
0.0
0.0
0.0
0.0
0.0
0.0
0.0
0.0
0.0
0.0
0.0
0.0
0.0
0.0
0.0
0.0
0.0
0.0
0.0
0.0
0.0
0.0
0.0
0.0
0.0
0.0
0.0
0.0
0.0
0.0
0.0
0.0
0.0
0.0
0.0
0.0
0.0
0.0
0.0
0.0
0.0
0.0
0.0
0.0
0.0
0.0
0.0
0.0
0.0
0.0
0.0
0.0
0.0
0.0
0.0
0.0
0.0
0.0
0.0
0.0
0.0
0.0
0.0
0.0
0.0
0.0
0.0
0.0
0.0
0.0
0.0
0.0
0.0
0.0
0.0
0.0
0.0
0.0
0.0
0.0
0.0
0.0
0.0
0.0
0.0
0.0
0.0
0.0
0.0
0.0
0.0
0.0
0.0
0.0
0.0
0.0
0.0
0.0
0.0
0.0
0.0
0.0
0.0
0.0
0.0
0.0
0.0
0.0
0.0
0.0
0.0
0.0
0.0
0.0
0.0
0.0
0.0
0.0
0.0
0.0
0.0
0.0
0.0
0.0
0.0
0.0
0.0
0.0
0.0
0.0
0.0
0.0
0.0
0.0
0.0
0.0
0.0
0.0
0.0
0.0
0.0
0.0
0.0
0.0
0.0
0.0
0.0
0.0
0.0
0.0
0.0
1.30697830745e-07
0.0
0.0
0.0
0.0
0.0
0.0
0.0
0.0
0.0
0.0
0.0
0.0
0.0
0.0
0.0
0.0
0.0
0.0
0.0
0.0
0.0
0.0
0.0
0.0
0.0
0.0
1.30697830745e-07
0.0
0.0
0.0
0.0
0.0
0.0
1.30697830745e-07
0.0
0.0
0.0
0.0
0.0
0.0
0.0
0.0
0.0
2.61395661491e-07
0.0
0.0
1.30697830745e-07
0.0
1.30697830745e-07
0.0
0.0
0.0
1.30697830745e-07
0.0
0.0
1.30697830745e-07
0.0
1.30697830745e-07
1.30697830745e-07
1.30697830745e-07
1.30697830745e-07
1.30697830745e-07
1.30697830745e-07
0.0
1.30697830745e-07
0.0
0.0
0.0
0.0
1.30697830745e-07
2.61395661491e-07
3.92093492236e-07
1.30697830745e-07
2.61395661491e-07
1.30697830745e-07
1.30697830745e-07
1.30697830745e-07
2.61395661491e-07
2.61395661491e-07
3.92093492236e-07
2.61395661491e-07
1.30697830745e-07
2.61395661491e-07
2.61395661491e-07
3.92093492236e-07
1.30697830745e-07
3.92093492236e-07
6.53489153727e-07
5.22791322981e-07
5.22791322981e-07
9.14884815218e-07
6.53489153727e-07
6.53489153727e-07
1.56837396894e-06
1.04558264596e-06
1.04558264596e-06
6.53489153727e-07
1.96046746118e-06
7.84186984472e-07
1.17628047671e-06
1.69907179969e-06
1.82976963044e-06
1.56837396894e-06
2.09116529193e-06
1.69907179969e-06
1.56837396894e-06
1.69907179969e-06
2.09116529193e-06
2.22186312267e-06
1.96046746118e-06
2.61395661491e-06
3.13674793789e-06
1.96046746118e-06
2.48325878416e-06
3.26744576863e-06
3.39814359938e-06
2.22186312267e-06
2.48325878416e-06
3.00605010714e-06
2.09116529193e-06
2.61395661491e-06
2.61395661491e-06
3.13674793789e-06
1.96046746118e-06
1.30697830745e-06
1.69907179969e-06
9.14884815218e-07
1.69907179969e-06
9.14884815218e-07
7.84186984472e-07
5.22791322981e-07
7.84186984472e-07
5.22791322981e-07
1.04558264596e-06
3.92093492236e-07
5.22791322981e-07
1.30697830745e-07
7.84186984472e-07
6.53489153727e-07
5.22791322981e-07
6.53489153727e-07
3.92093492236e-07
2.61395661491e-07
0.0
5.22791322981e-07
0.0
0.0
0.0
0.0
1.30697830745e-07
0.0
1.30697830745e-07
1.30697830745e-07
2.61395661491e-07
1.30697830745e-07
1.30697830745e-07
0.0
0.0
0.0
0.0
0.0
0.0
0.0
0.0
0.0
1.30697830745e-07
0.0
0.0
0.0
0.0
0.0
0.0
0.0
0.0
0.0
0.0
0.0
0.0
0.0
0.0
0.0
0.0
0.0
0.0
0.0
0.0
0.0
0.0
0.0
0.0
0.0
0.0
0.0
0.0
0.0
0.0
0.0
0.0
0.0
0.0
0.0
0.0
0.0
0.0
0.0
0.0
0.0
0.0
0.0
0.0
0.0
0.0
0.0
0.0
0.0
0.0
0.0
0.0
0.0
0.0
0.0
0.0
0.0
0.0
0.0
0.0
0.0
0.0
0.0
0.0
0.0
0.0
0.0
0.0
0.0
0.0
0.0
0.0
0.0
0.0
0.0
0.0
0.0
0.0
