0.0
0.0
0.0
0.0
0.0
0.0
0.0
0.0
0.0
0.0
0.0
0.0
0.0
0.0
0.0
0.0
0.0
0.0
0.0
0.0
0.0
0.0
0.0
0.0
0.0
0.0
0.0
0.0
0.0
0.0
0.0
0.0
0.0
0.0
0.0
0.0
0.0
0.0
0.0
0.0
0.0
0.0
0.0
0.0
0.0
0.0
0.0
0.0
0.0
0.0
0.0
0.0
0.0
0.0
0.0
0.0
0.0
0.0
0.0
0.0
0.0
0.0
0.0
0.0
0.0
0.0
0.0
0.0
0.0
0.0
0.0
0.0
0.0
0.0
0.0
0.0
0.0
0.0
0.0
0.0
0.0
0.0
0.0
0.0
0.0
0.0
0.0
0.0
0.0
0.0
0.0
0.0
0.0
0.0
0.0
0.0
0.0
0.0
0.0
0.0
0.0
0.0
0.0
0.0
0.0
0.0
0.0
0.0
0.0
0.0
0.0
0.0
0.0
0.0
0.0
0.0
0.0
0.0
0.0
0.0
0.0
0.0
0.0
0.0
0.0
0.0
0.0
0.0
0.0
0.0
0.0
0.0
0.0
0.0
0.0
0.0
0.0
0.0
0.0
0.0
0.0
0.0
0.0
0.0
0.0
0.0
0.0
0.0
0.0
0.0
0.0
0.0
0.0
0.0
0.0
0.0
0.0
0.0
0.0
0.0
0.0
0.0
0.0
0.0
0.0
0.0
0.0
0.0
0.0
0.0
0.0
0.0
0.0
0.0
0.0
0.0
0.0
0.0
0.0
0.0
0.0
0.0
0.0
0.0
0.0
0.0
0.0
0.0
0.0
0.0
0.0
0.0
0.0
0.0
0.0
0.0
0.0
0.0
0.0
0.0
0.0
0.0
0.0
0.0
0.0
0.0
0.0
0.0
0.0
0.0
0.0
0.0
0.0
0.0
0.0
0.0
0.0
0.0
0.0
0.0
0.0
0.0
0.0
0.0
0.0
0.0
0.0
0.0
0.0
0.0
0.0
0.0
0.0
0.0
0.0
0.0
0.0
0.0
0.0
0.0
0.0
0.0
0.0
0.0
0.0
0.0
0.0
0.0
0.0
0.0
0.0
0.0
0.0
0.0
0.0
0.0
0.0
0.0
0.0
0.0
0.0
4.12981273405e-07
0.0
0.0
0.0
0.0
0.0
0.0
0.0
0.0
2.06490636703e-07
2.06490636703e-07
0.0
0.0
0.0
0.0
2.06490636703e-07
2.06490636703e-07
4.12981273405e-07
2.06490636703e-07
0.0
0.0
0.0
6.19471910108e-07
6.19471910108e-07
4.12981273405e-07
8.25962546811e-07
6.19471910108e-07
6.19471910108e-07
1.44543445692e-06
8.25962546811e-07
6.19471910108e-07
8.25962546811e-07
6.19471910108e-07
1.03245318351e-06
8.25962546811e-07
2.06490636703e-07
1.85841573032e-06
1.03245318351e-06
2.06490636703e-07
1.23894382022e-06
6.19471910108e-07
4.12981273405e-07
1.85841573032e-06
6.19471910108e-07
6.19471910108e-07
1.23894382022e-06
2.68437827714e-06
2.27139700373e-06
1.03245318351e-06
2.68437827714e-06
1.65192509362e-06
2.06490636703e-06
2.68437827714e-06
2.06490636703e-06
2.06490636703e-06
1.65192509362e-06
2.47788764043e-06
1.85841573032e-06
2.06490636703e-06
2.27139700373e-06
2.27139700373e-06
2.06490636703e-06
2.89086891384e-06
1.23894382022e-06
2.27139700373e-06
1.85841573032e-06
1.23894382022e-06
3.51034082395e-06
1.44543445692e-06
1.44543445692e-06
8.25962546811e-07
2.27139700373e-06
2.06490636703e-06
1.44543445692e-06
1.23894382022e-06
1.23894382022e-06
1.65192509362e-06
2.06490636703e-06
8.25962546811e-07
1.23894382022e-06
6.19471910108e-07
8.25962546811e-07
6.19471910108e-07
2.06490636703e-07
4.12981273405e-07
0.0
2.06490636703e-07
2.06490636703e-07
2.06490636703e-07
2.06490636703e-07
0.0
2.06490636703e-07
2.06490636703e-07
0.0
0.0
0.0
0.0
0.0
2.06490636703e-07
0.0
0.0
0.0
0.0
0.0
0.0
0.0
0.0
0.0
0.0
0.0
0.0
0.0
0.0
0.0
0.0
0.0
0.0
0.0
0.0
0.0
0.0
0.0
0.0
0.0
0.0
0.0
0.0
0.0
0.0
0.0
0.0
0.0
0.0
0.0
0.0
0.0
0.0
0.0
0.0
0.0
