0.0
0.0
0.0
0.0
0.0
0.0
0.0
0.0
0.0
0.0
0.0
0.0
0.0
0.0
0.0
0.0
0.0
0.0
0.0
0.0
0.0
0.0
0.0
0.0
0.0
0.0
0.0
0.0
0.0
0.0
0.0
0.0
0.0
0.0
0.0
0.0
0.0
0.0
0.0
0.0
0.0
0.0
0.0
0.0
0.0
0.0
0.0
0.0
0.0
0.0
0.0
0.0
0.0
0.0
0.0
0.0
0.0
0.0
0.0
0.0
0.0
0.0
0.0
0.0
0.0
0.0
0.0
0.0
0.0
0.0
0.0
0.0
0.0
0.0
0.0
0.0
0.0
0.0
0.0
0.0
0.0
0.0
0.0
0.0
0.0
0.0
0.0
0.0
0.0
0.0
0.0
0.0
0.0
0.0
0.0
0.0
0.0
0.0
0.0
0.0
0.0
0.0
0.0
0.0
0.0
0.0
0.0
0.0
0.0
0.0
0.0
0.0
0.0
0.0
0.0
0.0
0.0
0.0
0.0
0.0
0.0
0.0
0.0
0.0
0.0
0.0
0.0
0.0
0.0
0.0
0.0
0.0
0.0
0.0
0.0
0.0
0.0
0.0
0.0
0.0
0.0
0.0
0.0
0.0
0.0
0.0
0.0
0.0
0.0
0.0
0.0
0.0
0.0
0.0
0.0
0.0
0.0
0.0
0.0
0.0
0.0
0.0
0.0
0.0
1.34788224852e-07
0.0
0.0
0.0
0.0
0.0
0.0
0.0
0.0
0.0
0.0
0.0
0.0
1.34788224852e-07
0.0
0.0
0.0
0.0
0.0
0.0
1.34788224852e-07
0.0
0.0
0.0
0.0
0.0
0.0
0.0
0.0
0.0
0.0
1.34788224852e-07
0.0
0.0
0.0
0.0
1.34788224852e-07
1.34788224852e-07
0.0
0.0
0.0
0.0
0.0
2.69576449704e-07
2.69576449704e-07
0.0
0.0
5.39152899409e-07
2.69576449704e-07
4.04364674556e-07
1.34788224852e-07
1.34788224852e-07
8.08729349113e-07
1.34788224852e-07
2.69576449704e-07
2.69576449704e-07
6.73941124261e-07
6.73941124261e-07
4.04364674556e-07
5.39152899409e-07
8.08729349113e-07
1.07830579882e-06
1.34788224852e-06
8.08729349113e-07
1.75224692308e-06
1.61745869823e-06
1.07830579882e-06
1.88703514793e-06
2.29139982249e-06
1.88703514793e-06
1.21309402367e-06
1.88703514793e-06
2.02182337278e-06
2.8305527219e-06
1.61745869823e-06
2.29139982249e-06
2.15661159763e-06
2.69576449704e-06
1.34788224852e-06
2.15661159763e-06
4.44801142012e-06
2.69576449704e-06
2.29139982249e-06
2.56097627219e-06
2.02182337278e-06
1.48267047337e-06
2.96534094675e-06
2.42618804734e-06
2.42618804734e-06
2.56097627219e-06
2.29139982249e-06
1.75224692308e-06
2.56097627219e-06
1.21309402367e-06
1.48267047337e-06
1.61745869823e-06
9.43517573965e-07
1.21309402367e-06
8.08729349113e-07
6.73941124261e-07
4.04364674556e-07
6.73941124261e-07
8.08729349113e-07
1.07830579882e-06
9.43517573965e-07
5.39152899409e-07
8.08729349113e-07
5.39152899409e-07
5.39152899409e-07
1.34788224852e-07
4.04364674556e-07
1.34788224852e-07
4.04364674556e-07
1.34788224852e-07
0.0
0.0
0.0
1.34788224852e-07
0.0
1.34788224852e-07
0.0
0.0
0.0
0.0
0.0
0.0
0.0
0.0
0.0
0.0
0.0
0.0
0.0
0.0
0.0
0.0
0.0
0.0
0.0
0.0
0.0
0.0
0.0
0.0
0.0
0.0
0.0
0.0
0.0
0.0
0.0
0.0
0.0
0.0
0.0
0.0
0.0
0.0
0.0
0.0
0.0
0.0
0.0
0.0
0.0
0.0
0.0
0.0
0.0
0.0
0.0
0.0
0.0
0.0
0.0
0.0
0.0
0.0
0.0
0.0
0.0
0.0
0.0
0.0
0.0
0.0
0.0
0.0
0.0
0.0
0.0
0.0
0.0
0.0
0.0
0.0
0.0
0.0
0.0
0.0
0.0
0.0
0.0
0.0
0.0
0.0
0.0
0.0
0.0
0.0
0.0
0.0
0.0
0.0
0.0
0.0
0.0
0.0
0.0
0.0
0.0
0.0
0.0
0.0
0.0
0.0
0.0
0.0
0.0
0.0
0.0
0.0
0.0
0.0
0.0
0.0
0.0
