0.0
0.0
0.0
0.0
0.0
0.0
0.0
0.0
0.0
0.0
0.0
0.0
0.0
0.0
0.0
0.0
0.0
0.0
0.0
0.0
0.0
0.0
0.0
0.0
0.0
0.0
0.0
0.0
0.0
0.0
0.0
0.0
0.0
0.0
0.0
0.0
0.0
0.0
0.0
0.0
0.0
0.0
0.0
0.0
0.0
0.0
0.0
0.0
0.0
0.0
0.0
0.0
0.0
0.0
0.0
0.0
0.0
0.0
0.0
0.0
0.0
0.0
0.0
0.0
0.0
0.0
0.0
0.0
0.0
0.0
0.0
0.0
0.0
0.0
0.0
0.0
0.0
0.0
0.0
0.0
0.0
0.0
0.0
0.0
0.0
0.0
0.0
0.0
0.0
0.0
0.0
0.0
0.0
0.0
0.0
0.0
0.0
0.0
0.0
0.0
0.0
0.0
0.0
0.0
0.0
0.0
0.0
0.0
0.0
0.0
0.0
0.0
0.0
0.0
0.0
0.0
0.0
1.95341034289e-07
0.0
0.0
1.95341034289e-07
0.0
0.0
0.0
0.0
0.0
1.95341034289e-07
1.95341034289e-07
0.0
0.0
0.0
1.95341034289e-07
1.95341034289e-07
0.0
1.95341034289e-07
1.95341034289e-07
1.95341034289e-07
3.90682068578e-07
0.0
3.90682068578e-07
5.86023102867e-07
1.95341034289e-07
7.81364137156e-07
0.0
5.86023102867e-07
9.76705171445e-07
9.76705171445e-07
3.90682068578e-07
0.0
1.95341034289e-07
5.86023102867e-07
1.95341034289e-07
9.76705171445e-07
1.56272827431e-06
1.36738724002e-06
7.81364137156e-07
1.17204620573e-06
1.56272827431e-06
1.36738724002e-06
1.36738724002e-06
1.56272827431e-06
1.95341034289e-06
1.95341034289e-06
1.56272827431e-06
3.90682068578e-07
2.53943344576e-06
1.7580693086e-06
2.34409241147e-06
1.7580693086e-06
3.12545654862e-06
9.76705171445e-07
3.90682068578e-06
1.95341034289e-06
1.17204620573e-06
2.14875137718e-06
2.93011551433e-06
1.56272827431e-06
3.5161386172e-06
1.17204620573e-06
1.95341034289e-06
1.36738724002e-06
1.17204620573e-06
1.95341034289e-06
2.14875137718e-06
9.76705171445e-07
7.81364137156e-07
1.7580693086e-06
1.17204620573e-06
9.76705171445e-07
7.81364137156e-07
9.76705171445e-07
5.86023102867e-07
3.90682068578e-07
5.86023102867e-07
1.36738724002e-06
5.86023102867e-07
9.76705171445e-07
7.81364137156e-07
5.86023102867e-07
3.90682068578e-07
1.95341034289e-07
0.0
3.90682068578e-07
0.0
1.95341034289e-07
0.0
3.90682068578e-07
1.95341034289e-07
1.95341034289e-07
3.90682068578e-07
3.90682068578e-07
5.86023102867e-07
0.0
3.90682068578e-07
1.95341034289e-07
3.90682068578e-07
0.0
3.90682068578e-07
3.90682068578e-07
0.0
0.0
3.90682068578e-07
0.0
1.95341034289e-07
0.0
0.0
5.86023102867e-07
3.90682068578e-07
0.0
0.0
3.90682068578e-07
0.0
0.0
0.0
0.0
0.0
3.90682068578e-07
1.95341034289e-07
1.95341034289e-07
0.0
0.0
5.86023102867e-07
0.0
1.95341034289e-07
0.0
0.0
0.0
7.81364137156e-07
1.95341034289e-07
0.0
3.90682068578e-07
0.0
5.86023102867e-07
3.90682068578e-07
1.95341034289e-07
1.95341034289e-07
0.0
0.0
0.0
0.0
0.0
3.90682068578e-07
0.0
3.90682068578e-07
0.0
0.0
0.0
1.95341034289e-07
0.0
0.0
0.0
0.0
0.0
0.0
0.0
0.0
0.0
0.0
0.0
0.0
0.0
0.0
0.0
0.0
0.0
0.0
0.0
0.0
0.0
0.0
0.0
0.0
0.0
0.0
0.0
0.0
0.0
0.0
0.0
0.0
0.0
0.0
0.0
0.0
0.0
0.0
0.0
0.0
0.0
0.0
0.0
0.0
0.0
0.0
0.0
0.0
0.0
0.0
0.0
0.0
0.0
0.0
0.0
0.0
0.0
0.0
0.0
0.0
0.0
0.0
0.0
0.0
0.0
0.0
0.0
0.0
0.0
0.0
0.0
0.0
0.0
0.0
0.0
0.0
0.0
0.0
0.0
0.0
0.0
0.0
0.0
0.0
0.0
0.0
0.0
0.0
0.0
0.0
0.0
0.0
0.0
0.0
0.0
0.0
0.0
0.0
0.0
0.0
0.0
0.0
0.0
0.0
0.0
0.0
0.0
0.0
0.0
0.0
0.0
0.0
0.0
0.0
0.0
0.0
0.0
0.0
0.0
0.0
0.0
0.0
0.0
0.0
0.0
0.0
0.0
0.0
0.0
0.0
0.0
0.0
0.0
