0.0
0.0
0.0
0.0
0.0
0.0
0.0
0.0
0.0
0.0
0.0
0.0
0.0
0.0
0.0
0.0
0.0
0.0
0.0
0.0
0.0
0.0
0.0
0.0
0.0
0.0
0.0
0.0
0.0
0.0
0.0
0.0
0.0
0.0
0.0
0.0
0.0
0.0
0.0
0.0
0.0
0.0
0.0
0.0
0.0
0.0
0.0
0.0
0.0
0.0
0.0
0.0
0.0
0.0
0.0
0.0
0.0
0.0
0.0
0.0
0.0
0.0
0.0
0.0
0.0
0.0
0.0
0.0
0.0
0.0
0.0
0.0
0.0
0.0
0.0
0.0
0.0
0.0
0.0
0.0
0.0
0.0
0.0
0.0
0.0
0.0
0.0
0.0
0.0
0.0
0.0
0.0
0.0
0.0
0.0
0.0
0.0
0.0
0.0
0.0
0.0
0.0
0.0
0.0
0.0
0.0
0.0
0.0
0.0
0.0
0.0
2.31311761831e-07
0.0
0.0
0.0
0.0
0.0
0.0
0.0
0.0
0.0
0.0
0.0
0.0
0.0
0.0
0.0
0.0
0.0
0.0
0.0
4.62623523661e-07
0.0
0.0
0.0
2.31311761831e-07
0.0
2.31311761831e-07
2.31311761831e-07
2.31311761831e-07
2.31311761831e-07
4.62623523661e-07
0.0
2.31311761831e-07
2.31311761831e-07
2.31311761831e-07
0.0
0.0
0.0
2.31311761831e-07
4.62623523661e-07
4.62623523661e-07
0.0
4.62623523661e-07
2.31311761831e-07
6.93935285492e-07
4.62623523661e-07
2.31311761831e-07
2.31311761831e-07
0.0
6.93935285492e-07
0.0
4.62623523661e-07
9.25247047323e-07
2.31311761831e-07
0.0
6.93935285492e-07
2.31311761831e-07
4.62623523661e-07
2.31311761831e-07
6.93935285492e-07
2.31311761831e-07
4.62623523661e-07
2.31311761831e-07
4.62623523661e-07
0.0
0.0
2.31311761831e-07
6.93935285492e-07
4.62623523661e-07
2.31311761831e-07
9.25247047323e-07
2.31311761831e-07
9.25247047323e-07
2.31311761831e-07
0.0
2.31311761831e-07
0.0
4.62623523661e-07
4.62623523661e-07
1.15655880915e-06
4.62623523661e-07
2.31311761831e-07
2.31311761831e-07
2.31311761831e-07
2.31311761831e-07
4.62623523661e-07
0.0
2.31311761831e-07
2.31311761831e-07
0.0
0.0
2.31311761831e-07
2.31311761831e-07
4.62623523661e-07
0.0
0.0
6.93935285492e-07
2.31311761831e-07
9.25247047323e-07
6.93935285492e-07
1.15655880915e-06
2.31311761831e-07
2.31311761831e-07
4.62623523661e-07
4.62623523661e-07
0.0
2.31311761831e-07
2.31311761831e-07
6.93935285492e-07
6.93935285492e-07
4.62623523661e-07
6.93935285492e-07
6.93935285492e-07
6.93935285492e-07
2.31311761831e-07
9.25247047323e-07
6.93935285492e-07
1.61918233281e-06
1.15655880915e-06
1.15655880915e-06
1.61918233281e-06
9.25247047323e-07
9.25247047323e-07
6.93935285492e-07
1.61918233281e-06
1.15655880915e-06
6.93935285492e-07
6.93935285492e-07
9.25247047323e-07
9.25247047323e-07
4.62623523661e-07
9.25247047323e-07
2.08180585648e-06
1.15655880915e-06
1.15655880915e-06
1.15655880915e-06
9.25247047323e-07
1.38787057098e-06
6.93935285492e-07
2.08180585648e-06
1.61918233281e-06
1.15655880915e-06
1.15655880915e-06
6.93935285492e-07
1.61918233281e-06
1.85049409465e-06
1.85049409465e-06
2.31311761831e-06
2.77574114197e-06
1.61918233281e-06
1.38787057098e-06
1.61918233281e-06
2.08180585648e-06
1.15655880915e-06
6.93935285492e-07
9.25247047323e-07
6.93935285492e-07
9.25247047323e-07
0.0
1.15655880915e-06
6.93935285492e-07
6.93935285492e-07
4.62623523661e-07
2.31311761831e-07
6.93935285492e-07
2.31311761831e-07
0.0
2.31311761831e-07
0.0
0.0
0.0
0.0
0.0
0.0
2.31311761831e-07
2.31311761831e-07
0.0
4.62623523661e-07
0.0
0.0
0.0
0.0
0.0
0.0
0.0
0.0
0.0
0.0
0.0
0.0
0.0
0.0
0.0
0.0
0.0
0.0
0.0
0.0
0.0
0.0
0.0
0.0
0.0
0.0
0.0
0.0
0.0
0.0
0.0
0.0
0.0
0.0
0.0
0.0
0.0
0.0
0.0
0.0
0.0
0.0
0.0
0.0
0.0
0.0
0.0
0.0
0.0
0.0
0.0
0.0
0.0
0.0
0.0
0.0
0.0
0.0
0.0
0.0
0.0
0.0
0.0
0.0
0.0
0.0
0.0
0.0
0.0
0.0
0.0
0.0
0.0
0.0
0.0
0.0
0.0
0.0
0.0
0.0
0.0
0.0
0.0
0.0
0.0
0.0
0.0
0.0
0.0
0.0
0.0
0.0
0.0
0.0
0.0
0.0
0.0
0.0
0.0
0.0
0.0
0.0
0.0
0.0
0.0
0.0
0.0
0.0
0.0
0.0
0.0
0.0
