0.0
0.0
0.0
0.0
0.0
0.0
0.0
0.0
0.0
0.0
0.0
0.0
0.0
0.0
0.0
0.0
0.0
0.0
0.0
0.0
0.0
0.0
0.0
0.0
0.0
0.0
0.0
0.0
0.0
0.0
0.0
0.0
0.0
0.0
0.0
0.0
0.0
0.0
2.61395661491e-08
0.0
0.0
2.61395661491e-08
5.22791322981e-08
1.04558264596e-07
2.61395661491e-07
2.09116529193e-07
3.39814359938e-07
4.44372624534e-07
5.22791322981e-07
1.01944307981e-06
1.51609483665e-06
2.66623574721e-06
2.69237531335e-06
2.90149184255e-06
2.7707940118e-06
1.30697830745e-06
6.27349587578e-07
4.18233058385e-07
1.30697830745e-07
2.61395661491e-08
0.0
2.61395661491e-08
0.0
0.0
0.0
0.0
0.0
0.0
0.0
0.0
0.0
0.0
0.0
0.0
0.0
0.0
0.0
0.0
0.0
0.0
0.0
