0.0
0.0
0.0
0.0
0.0
0.0
0.0
0.0
0.0
0.0
0.0
0.0
0.0
0.0
0.0
0.0
0.0
0.0
0.0
0.0
0.0
0.0
0.0
0.0
0.0
0.0
0.0
0.0
0.0
0.0
0.0
0.0
0.0
9.25247047323e-08
1.85049409465e-07
1.38787057098e-07
2.77574114197e-07
5.08885876027e-07
5.08885876027e-07
1.29534586625e-06
1.06403410442e-06
1.85049409465e-06
1.71170703755e-06
2.45190467541e-06
2.68321643724e-06
1.61918233281e-06
1.24908351389e-06
9.71509399689e-07
2.31311761831e-07
6.47672933126e-07
9.25247047323e-08
2.77574114197e-07
9.25247047323e-08
4.62623523661e-08
9.25247047323e-08
0.0
0.0
0.0
0.0
0.0
0.0
0.0
0.0
0.0
0.0
0.0
0.0
0.0
0.0
0.0
0.0
0.0
0.0
0.0
0.0
0.0
0.0
0.0
0.0
0.0
0.0
