0.0
0.0
0.0
0.0
0.0
0.0
0.0
0.0
0.0
0.0
0.0
0.0
0.0
0.0
0.0
0.0
0.0
0.0
0.0
0.0
0.0
0.0
0.0
0.0
0.0
0.0
0.0
0.0
0.0
0.0
0.0
0.0
0.0
0.0
0.0
0.0
0.0
0.0
0.0
0.0
0.0
0.0
0.0
0.0
0.0
0.0
0.0
0.0
3.41939126184e-08
0.0
3.41939126184e-08
1.02581737855e-07
2.39357388329e-07
1.09420520379e-06
1.19678694165e-06
2.63293127162e-06
3.5219729997e-06
3.82971821327e-06
3.21422778613e-06
1.43614432997e-06
4.10326951421e-07
1.70969563092e-07
1.36775650474e-07
3.41939126184e-08
0.0
0.0
0.0
0.0
0.0
0.0
0.0
0.0
0.0
0.0
0.0
0.0
0.0
0.0
0.0
0.0
0.0
