0.0
0.0
0.0
0.0
0.0
0.0
0.0
0.0
0.0
0.0
0.0
0.0
0.0
0.0
0.0
0.0
0.0
0.0
0.0
0.0
0.0
0.0
0.0
0.0
0.0
0.0
0.0
0.0
0.0
0.0
0.0
0.0
0.0
2.61395661491e-08
0.0
7.84186984472e-08
0.0
0.0
0.0
0.0
2.61395661491e-08
7.84186984472e-08
2.61395661491e-08
7.84186984472e-08
1.04558264596e-07
1.56837396894e-07
3.39814359938e-07
3.13674793789e-07
5.48930889131e-07
5.48930889131e-07
1.04558264596e-06
1.3853970059e-06
1.77749049814e-06
1.88204876273e-06
2.50939835031e-06
2.37870051957e-06
1.85590919658e-06
1.04558264596e-06
6.27349587578e-07
5.7507045528e-07
4.18233058385e-07
1.04558264596e-07
7.84186984472e-08
2.61395661491e-08
2.61395661491e-08
2.61395661491e-08
0.0
0.0
0.0
0.0
0.0
0.0
0.0
0.0
0.0
0.0
0.0
0.0
0.0
0.0
0.0
