0.0
0.0
0.0
0.0
0.0
0.0
0.0
0.0
0.0
0.0
0.0
0.0
0.0
0.0
0.0
0.0
0.0
0.0
0.0
0.0
0.0
0.0
0.0
0.0
0.0
0.0
0.0
0.0
0.0
0.0
0.0
0.0
2.61395661491e-08
0.0
0.0
0.0
0.0
2.61395661491e-08
0.0
0.0
2.61395661491e-08
5.22791322981e-08
1.04558264596e-07
1.30697830745e-07
7.84186984472e-08
1.82976963044e-07
1.82976963044e-07
2.09116529193e-07
2.35256095342e-07
7.84186984472e-07
1.09786177826e-06
1.62065310124e-06
2.22186312267e-06
2.97991054099e-06
2.58781704876e-06
2.58781704876e-06
1.17628047671e-06
8.10326550621e-07
5.22791322981e-07
2.35256095342e-07
7.84186984472e-08
7.84186984472e-08
2.61395661491e-08
0.0
2.61395661491e-08
0.0
0.0
0.0
0.0
0.0
0.0
0.0
0.0
0.0
0.0
0.0
0.0
0.0
0.0
0.0
0.0
