0.0
0.0
0.0
0.0
0.0
0.0
0.0
0.0
0.0
0.0
0.0
0.0
0.0
0.0
0.0
0.0
0.0
0.0
0.0
0.0
0.0
0.0
0.0
0.0
0.0
0.0
0.0
0.0
0.0
0.0
0.0
0.0
0.0
0.0
1.38787057098e-07
1.38787057098e-07
2.77574114197e-07
3.23836466563e-07
5.08885876027e-07
1.11029645679e-06
1.43413292335e-06
1.52665762808e-06
2.49816702777e-06
2.7294787896e-06
2.91452819907e-06
1.57291998045e-06
1.24908351389e-06
4.62623523661e-07
4.62623523661e-07
2.31311761831e-07
2.77574114197e-07
9.25247047323e-08
1.38787057098e-07
0.0
0.0
0.0
0.0
0.0
0.0
0.0
0.0
0.0
0.0
0.0
0.0
0.0
0.0
0.0
0.0
0.0
0.0
0.0
0.0
0.0
0.0
0.0
0.0
0.0
0.0
0.0
0.0
