0.0
0.0
0.0
0.0
0.0
0.0
0.0
0.0
0.0
0.0
0.0
0.0
0.0
0.0
0.0
0.0
0.0
0.0
0.0
0.0
0.0
0.0
0.0
0.0
0.0
0.0
0.0
0.0
0.0
0.0
0.0
0.0
1.85049409465e-07
1.38787057098e-07
4.62623523661e-08
2.31311761831e-07
6.0141058076e-07
5.08885876027e-07
4.62623523661e-07
9.71509399689e-07
1.11029645679e-06
1.57291998045e-06
1.52665762808e-06
1.98928115174e-06
1.80423174228e-06
1.98928115174e-06
1.15655880915e-06
9.71509399689e-07
1.01777175205e-06
6.0141058076e-07
3.70098818929e-07
2.77574114197e-07
1.85049409465e-07
2.77574114197e-07
9.25247047323e-08
0.0
0.0
0.0
0.0
0.0
0.0
0.0
0.0
0.0
0.0
0.0
0.0
0.0
0.0
0.0
0.0
0.0
0.0
0.0
0.0
0.0
0.0
0.0
0.0
0.0
0.0
