0.0
0.0
0.0
0.0
0.0
0.0
0.0
0.0
0.0
0.0
0.0
0.0
0.0
0.0
0.0
0.0
0.0
0.0
0.0
0.0
0.0
0.0
4.62623523661e-08
0.0
0.0
0.0
0.0
4.62623523661e-08
9.25247047323e-08
1.85049409465e-07
3.70098818929e-07
3.70098818929e-07
2.77574114197e-07
4.16361171295e-07
2.31311761831e-07
3.70098818929e-07
6.0141058076e-07
5.08885876027e-07
3.23836466563e-07
9.25247047323e-08
2.31311761831e-07
5.08885876027e-07
5.55148228394e-07
5.08885876027e-07
8.78984694957e-07
7.86459990224e-07
7.40197637858e-07
1.38787057098e-06
1.43413292335e-06
1.43413292335e-06
1.34160821862e-06
1.71170703755e-06
9.71509399689e-07
7.40197637858e-07
6.93935285492e-07
1.85049409465e-07
0.0
4.62623523661e-08
0.0
0.0
0.0
0.0
0.0
0.0
0.0
0.0
0.0
0.0
0.0
0.0
0.0
0.0
0.0
0.0
0.0
0.0
0.0
0.0
0.0
0.0
0.0
