0.0
0.0
0.0
0.0
0.0
0.0
0.0
0.0
0.0
0.0
0.0
0.0
0.0
0.0
0.0
0.0
0.0
3.90682068578e-08
0.0
0.0
3.90682068578e-08
0.0
7.81364137156e-08
7.81364137156e-08
2.73477448005e-07
2.34409241147e-07
3.90682068578e-07
7.0322772344e-07
7.0322772344e-07
1.25018261945e-06
1.25018261945e-06
1.95341034289e-06
2.22688779089e-06
1.28925082631e-06
1.60179648117e-06
9.37636964587e-07
8.59500550871e-07
7.0322772344e-07
6.25091309725e-07
2.73477448005e-07
3.90682068578e-08
1.17204620573e-07
7.81364137156e-08
2.34409241147e-07
1.95341034289e-07
7.81364137156e-08
7.81364137156e-08
7.81364137156e-08
3.12545654862e-07
2.73477448005e-07
2.34409241147e-07
2.73477448005e-07
2.73477448005e-07
1.56272827431e-07
3.90682068578e-08
7.81364137156e-08
3.90682068578e-08
0.0
0.0
0.0
0.0
0.0
0.0
0.0
0.0
0.0
0.0
0.0
0.0
0.0
0.0
0.0
0.0
0.0
0.0
0.0
0.0
0.0
0.0
0.0
0.0
