0.0
0.0
0.0
0.0
0.0
0.0
0.0
0.0
0.0
0.0
0.0
0.0
0.0
0.0
0.0
0.0
0.0
0.0
0.0
0.0
0.0
0.0
0.0
0.0
0.0
0.0
0.0
0.0
0.0
0.0
0.0
0.0
0.0
0.0
0.0
0.0
0.0
0.0
0.0
0.0
0.0
0.0
0.0
0.0
0.0
0.0
0.0
0.0
0.0
0.0
6.83878252369e-08
1.70969563092e-07
4.10326951421e-07
8.8904172808e-07
9.57429553317e-07
1.2993686795e-06
2.35937997067e-06
2.32518605805e-06
2.39357388329e-06
1.70969563092e-06
2.18841040758e-06
9.23235640698e-07
1.12839911641e-06
8.20653902843e-07
1.70969563092e-07
1.70969563092e-07
1.02581737855e-07
0.0
0.0
0.0
0.0
0.0
0.0
0.0
0.0
0.0
0.0
0.0
0.0
0.0
0.0
