0.0
0.0
0.0
0.0
0.0
0.0
0.0
0.0
0.0
0.0
0.0
0.0
0.0
0.0
0.0
0.0
0.0
0.0
0.0
0.0
0.0
0.0
0.0
0.0
0.0
0.0
0.0
0.0
0.0
0.0
0.0
0.0
0.0
0.0
0.0
0.0
2.61395661491e-08
0.0
0.0
0.0
2.61395661491e-08
0.0
7.84186984472e-08
1.30697830745e-07
2.8753522764e-07
2.35256095342e-07
1.56837396894e-07
4.44372624534e-07
6.01210021429e-07
8.10326550621e-07
1.75135093199e-06
2.03888615963e-06
2.61395661491e-06
2.9276314087e-06
2.84921271025e-06
1.5422344028e-06
8.62605682919e-07
3.92093492236e-07
2.61395661491e-07
2.61395661491e-08
0.0
0.0
2.61395661491e-08
0.0
0.0
0.0
0.0
0.0
0.0
0.0
0.0
0.0
0.0
0.0
0.0
0.0
0.0
0.0
0.0
0.0
0.0
