0.0
0.0
0.0
0.0
0.0
0.0
0.0
0.0
0.0
0.0
0.0
0.0
0.0
0.0
0.0
0.0
0.0
0.0
0.0
0.0
0.0
0.0
0.0
0.0
0.0
0.0
0.0
0.0
0.0
0.0
0.0
0.0
0.0
0.0
0.0
0.0
0.0
0.0
0.0
0.0
0.0
0.0
0.0
0.0
0.0
0.0
0.0
3.41939126184e-08
3.41939126184e-08
3.41939126184e-08
6.83878252369e-08
2.73551300948e-07
2.73551300948e-07
4.4452086404e-07
1.12839911641e-06
1.2993686795e-06
1.36775650474e-06
1.77808345616e-06
1.98324693187e-06
1.94905301925e-06
2.01744084449e-06
1.50453215521e-06
1.19678694165e-06
8.54847815461e-07
6.15490427132e-07
6.49684339751e-07
3.76133038803e-07
1.02581737855e-07
6.83878252369e-08
3.41939126184e-08
0.0
0.0
0.0
0.0
0.0
0.0
0.0
0.0
0.0
0.0
0.0
