0.0
0.0
0.0
0.0
0.0
0.0
0.0
0.0
0.0
0.0
0.0
0.0
0.0
0.0
0.0
0.0
0.0
0.0
0.0
0.0
0.0
0.0
0.0
7.81364137156e-08
0.0
3.90682068578e-08
7.81364137156e-08
2.73477448005e-07
4.29750275436e-07
5.46954896009e-07
5.86023102867e-07
1.32831903317e-06
1.56272827431e-06
2.07061496346e-06
2.07061496346e-06
2.46129703204e-06
1.4845918606e-06
1.28925082631e-06
7.0322772344e-07
6.25091309725e-07
2.34409241147e-07
1.95341034289e-07
4.29750275436e-07
1.95341034289e-07
1.95341034289e-07
1.17204620573e-07
1.95341034289e-07
1.17204620573e-07
1.56272827431e-07
7.81364137156e-08
1.56272827431e-07
1.95341034289e-07
1.17204620573e-07
7.81364137156e-08
0.0
0.0
0.0
0.0
0.0
0.0
0.0
0.0
0.0
0.0
0.0
0.0
0.0
0.0
0.0
0.0
0.0
0.0
0.0
0.0
0.0
0.0
0.0
0.0
0.0
0.0
0.0
