0.0
0.0
0.0
0.0
0.0
0.0
0.0
0.0
0.0
0.0
0.0
0.0
0.0
0.0
0.0
0.0
0.0
0.0
0.0
0.0
0.0
0.0
7.81364137156e-08
0.0
7.81364137156e-08
1.17204620573e-07
1.17204620573e-07
3.90682068578e-07
3.5161386172e-07
6.64159516583e-07
1.17204620573e-06
1.32831903317e-06
1.95341034289e-06
2.10968317032e-06
2.10968317032e-06
1.52366006745e-06
1.44552365374e-06
8.59500550871e-07
8.20432344014e-07
3.12545654862e-07
2.73477448005e-07
2.73477448005e-07
1.95341034289e-07
3.12545654862e-07
1.56272827431e-07
1.17204620573e-07
1.56272827431e-07
3.90682068578e-08
2.73477448005e-07
1.95341034289e-07
3.12545654862e-07
7.81364137156e-08
2.34409241147e-07
3.90682068578e-08
0.0
0.0
0.0
0.0
0.0
0.0
0.0
0.0
0.0
0.0
0.0
0.0
0.0
0.0
0.0
0.0
0.0
0.0
0.0
0.0
0.0
0.0
0.0
0.0
0.0
0.0
0.0
